<?xml version="1.0" standalone="no"?>
<!DOCTYPE svg PUBLIC "-//W3C//DTD SVG 20010904//EN"
 "http://www.w3.org/TR/2001/REC-SVG-20010904/DTD/svg10.dtd">
<svg version="1.0" xmlns="http://www.w3.org/2000/svg"
 width="512.000000pt" height="512.000000pt" viewBox="0 0 512.000000 512.000000"
 preserveAspectRatio="xMidYMid meet">

<g transform="translate(0.000000,512.000000) scale(0.100000,-0.100000)"
fill="#000000" stroke="none">
<path d="M3608 4902 c-631 -120 -1150 -220 -1152 -223 -3 -2 4 -31 15 -63 21
-62 28 -174 14 -235 -7 -32 -6 -33 16 -28 13 3 546 103 1184 223 897 169 1166
223 1189 239 49 33 76 81 76 137 0 91 -61 158 -148 164 -31 2 -436 -70 -1194
-214z"/>
<path d="M1961 4696 c-49 -18 -111 -74 -132 -120 -28 -61 -25 -140 7 -205 84
-168 324 -168 408 0 49 100 29 211 -53 280 -65 56 -152 73 -230 45z"/>
<path d="M927 4394 c-424 -80 -658 -129 -679 -141 -50 -29 -71 -66 -76 -130
-3 -49 0 -64 20 -93 34 -50 83 -80 132 -80 33 0 1298 231 1343 245 9 3 4 19
-17 51 -37 58 -59 133 -62 208 -1 32 -5 59 -8 60 -3 2 -296 -52 -653 -120z"/>
<path d="M1872 3819 c4 -246 10 -282 54 -321 11 -9 172 -96 359 -193 187 -97
350 -183 363 -191 21 -14 22 -21 22 -129 l0 -115 -214 0 c-117 0 -238 -5 -267
-10 -117 -22 -179 -102 -187 -241 l-5 -79 -97 0 c-168 0 -283 -53 -354 -163
-22 -33 -63 -138 -114 -292 -128 -381 -152 -493 -159 -757 -6 -186 3 -298 38
-465 27 -133 195 -638 231 -695 38 -61 88 -104 157 -137 l56 -26 1100 0 1100
0 57 27 c79 37 143 99 177 172 36 76 161 456 196 592 38 154 55 292 55 471 0
278 -31 434 -164 831 -83 248 -105 291 -172 351 -72 63 -137 84 -281 89 l-123
4 0 77 c0 136 -62 219 -179 241 -30 5 -159 10 -287 10 l-234 0 0 185 c0 200
-6 230 -52 273 -14 13 -185 106 -379 207 l-354 184 -3 166 -2 167 -23 -6 c-94
-28 -200 -28 -295 0 l-24 7 4 -234z m1904 -1536 c33 -11 67 -34 105 -72 l56
-56 76 -230 c41 -126 85 -277 97 -335 39 -189 42 -459 7 -565 -34 -99 -134
-198 -230 -227 -61 -19 -2003 -19 -2064 0 -59 18 -132 71 -174 126 -59 78 -72
129 -77 312 -6 239 14 351 125 689 69 209 89 251 149 304 83 73 39 70 1010 70
789 1 875 -1 920 -16z"/>
<path d="M2064 2156 c-84 -39 -106 -77 -179 -296 -90 -276 -100 -328 -100
-545 0 -167 2 -184 23 -231 27 -60 89 -123 151 -155 34 -17 67 -24 133 -27
l88 -4 0 641 0 641 -32 0 c-18 0 -56 -11 -84 -24z"/>
<path d="M2380 1540 l0 -640 75 0 75 0 0 640 0 640 -75 0 -75 0 0 -640z"/>
</g>
</svg>
