<?xml version="1.0" encoding="UTF-8" standalone="no"?>
<svg
   viewBox="0 0 640 512"
   version="1.1"
   id="svg1"
   sodipodi:docname="fish1.svg"
   inkscape:version="1.3.2 (1:1.3.2+202311252150+091e20ef0f)"
   xmlns:inkscape="http://www.inkscape.org/namespaces/inkscape"
   xmlns:sodipodi="http://sodipodi.sourceforge.net/DTD/sodipodi-0.dtd"
   xmlns="http://www.w3.org/2000/svg"
   xmlns:svg="http://www.w3.org/2000/svg">
  <defs
     id="defs1" />
  <sodipodi:namedview
     id="namedview1"
     pagecolor="#ffffff"
     bordercolor="#666666"
     borderopacity="1.0"
     inkscape:showpageshadow="2"
     inkscape:pageopacity="0.0"
     inkscape:pagecheckerboard="0"
     inkscape:deskcolor="#d1d1d1"
     inkscape:zoom="1.0858833"
     inkscape:cx="378.03326"
     inkscape:cy="331.52734"
     inkscape:window-width="1848"
     inkscape:window-height="1016"
     inkscape:window-x="72"
     inkscape:window-y="27"
     inkscape:window-maximized="1"
     inkscape:current-layer="g4" />
  <g
     id="g2"
     transform="matrix(-3.6424334,0,0,3.7154367,453.85001,23.027446)">
    <path
       class="st0"
       d="m 10.39,29.39 -0.18,0.09 c 0.04,0.09 0.07,0.18 0.09,0.28 3.62,15.97 11.21,17.62 24.21,20.43 1.75,0.38 3.6,0.78 5.63,1.26 l 35.57,8.34 c 5.4,1.05 10.62,1.23 15.42,0.32 3.25,-0.62 6.32,-1.73 9.12,-3.4 C 90.99,56.76 84.31,54.51 75.22,50.72 60.57,44.62 50.41,36.46 38.41,31.3 29.55,27.49 20.37,25.76 10.39,29.39 Z M 6.74,30.84 C 2.91,32.02 0.3,31.43 0.01,27.53 -0.22,23.25 2,19.1 6.61,15.09 c 28.07,-24.45 75.2,-18.11 97.38,11.34 6.8,9.04 11.16,17.03 18.89,26.42 -3.07,1.6 -6.18,2.69 -9.36,3.15 -0.83,0.12 -4.01,0.32 -7.39,0.5 -0.08,0.42 -0.3,0.82 -0.66,1.1 -4.04,3.23 -8.66,5.23 -13.65,6.17 -5.28,1 -10.97,0.82 -16.82,-0.32 L 39.3,55.06 C 37.41,54.62 35.52,54.21 33.72,53.82 19.34,50.71 10.91,48.87 6.74,30.84 Z M 43,11.26 C 49.66,8.73 56.44,7.34 61.59,8.04 57.84,10.44 53.78,12.6 48.99,14.5 49,19.33 48.41,25.26 47.33,30.03 46.43,23.74 45.14,16.48 43,11.26 Z m 39.69,18.68 c 6.86,-1.92 13.74,-2.69 18.81,-1.53 -3.95,2.06 -8.19,3.83 -13.13,5.29 -0.43,4.81 -1.55,10.66 -3.06,15.32 C 84.98,42.68 84.35,35.34 82.69,29.94 Z M 63.91,18.89 c 6.86,-1.92 13.74,-2.69 18.81,-1.53 -3.95,2.06 -8.19,3.83 -13.13,5.29 -0.43,4.81 -1.55,10.66 -3.06,15.32 -0.34,-6.34 -0.97,-13.68 -2.62,-19.08 z"
       id="path1"
       style="clip-rule:evenodd;fill-rule:evenodd" />
  </g>
  <g
     transform="matrix(0.1707332,0,0,-0.14413936,213.79181,574.81389)"
     fill="#000000"
     stroke="none"
     id="g4">
    <path
       d="m 1744.598,2347.2218 c -23.7054,-25.9757 -17.1205,-55.5591 21.0716,-94.5225 47.4107,-47.6221 61.8975,-105.3458 38.8505,-157.2971 -23.7055,-55.559 -68.4823,-61.3314 -213.3488,-28.8618 -183.0587,41.8497 -331.2176,27.4188 -385.8719,-37.5205 -39.5091,-46.9004 -47.4109,-128.4351 -19.7545,-194.0958 8.5603,-20.2032 18.4376,-38.9635 21.0715,-41.1281 3.2924,-2.1646 5.9264,23.0895 5.9264,56.2806 0,73.5977 9.8772,91.6363 64.5314,121.9412 32.9243,18.0387 46.7525,20.9249 111.9423,23.8111 63.2146,2.8862 88.2369,0 177.7909,-18.7602 110.6253,-23.811 191.6188,-28.1404 238.3712,-14.4309 119.8441,36.0773 130.3798,290.783 15.8036,381.6978 -33.5827,26.6971 -53.9957,27.4187 -76.3842,2.8862 z"
       id="path1-6"
       style="stroke-width:0.689294" />
    <path
       d="m 1033.4351,2261.3577 c -195.5699,-57.7236 -235.73744,-243.1609 -90.21243,-420.6612 58.60513,-71.4331 64.53143,-67.8253 26.3394,13.7093 -32.9242,70.7116 -33.5828,74.3193 -33.5828,135.6507 0,57.0021 1.9755,66.3823 18.4376,93.0794 23.047,38.242 72.43333,69.99 136.30623,85.864 38.1922,10.1017 76.3843,12.9878 165.9382,12.2663 113.2592,0 116.5516,0 106.0159,12.9878 -15.8037,19.4818 -75.0672,47.622 -131.6969,64.2176 -59.2636,16.5956 -146.842,17.3172 -197.5452,2.8861 z"
       id="path2"
       style="stroke-width:0.689294" />
    <path
       d="M 1037.8114,1680.4207 C 837.27728,1658.5519 687.4276,1606.7572 449.43106,1476.695 145.32436,1309.801 171.76842,1320.16 68.195846,1328.2169 c -104.674405,9.208 -124.50745,2.302 -156.46069,-55.2476 -52.888126,-94.3814 -34.156916,-173.7999 53.989957,-223.2926 60.600973,-34.5298 131.118463,-29.9258 219.265337,13.8119 87.04504,42.5868 171.8864,41.4358 283.17182,-5.7549 72.72117,-29.9259 95.85972,-34.5298 152.05335,-29.9259 38.56425,3.453 91.45237,18.4159 126.71112,35.6808 84.84136,41.4358 185.10843,41.4358 272.15346,-1.151 51.7863,-24.1708 80.434,-31.0768 146.5442,-31.0768 66.1101,0 94.7579,6.906 146.5442,31.0768 87.045,42.5868 187.3121,42.5868 272.1534,1.151 35.2588,-17.2649 88.1469,-32.2278 126.7111,-35.6808 56.1937,-4.6039 79.3322,0 152.0534,29.9259 111.2854,47.1907 196.1268,48.3417 283.1718,5.7549 33.0551,-16.1139 85.9432,-32.2278 117.8964,-35.6808 48.4808,-5.7549 65.0084,-2.3019 105.7763,23.0199 85.9432,52.9457 102.4707,128.9112 49.5826,222.1416 -31.9532,57.5496 -51.7863,64.4556 -156.4607,55.2476 -103.5726,-8.0569 -76.0267,-19.5668 -383.4389,149.6291 -88.1468,48.3417 -200.5341,103.5893 -250.1167,122.0052 -175.1919,66.7576 -410.9848,98.9854 -591.6859,80.5695 z m 591.6859,-215.2356 c 60.601,-33.3788 98.0634,-74.8146 98.0634,-107.0424 0,-43.7377 -96.9616,-48.3417 -155.3589,-6.9059 -39.6661,28.7748 -100.267,115.0993 -113.4891,164.592 l -7.7128,25.3218 61.7028,-21.8689 c 34.1569,-12.6609 87.045,-36.8317 116.7946,-54.0966 z m -761.36861,35.6807 c -19.83305,-52.9456 -76.02668,-128.9111 -114.59093,-153.082 -38.56426,-25.3218 -110.18359,-32.2278 -138.83132,-12.6609 -25.34223,16.1139 -1.10184,69.0596 49.58261,105.8913 48.48078,35.6808 165.27538,88.6265 195.02495,89.7775 16.52754,0 17.62937,-4.604 8.81469,-29.9259 z m 343.77281,-1.1509 c 98.0634,-112.7973 81.5359,-176.1019 -46.2771,-176.1019 -99.1652,0 -135.5258,46.0397 -91.4524,115.0992 31.9533,50.6437 72.7212,92.0795 91.4524,92.0795 9.9165,0 30.8514,-13.812 46.2771,-31.0768 z"
       id="path3"
       style="stroke-width:1.12615" />
    <path
       d="m 267.62814,943.78538 c -24.24039,-3.45298 -58.3973,-14.9629 -77.12851,-25.32184 -17.62937,-10.35893 -55.09179,-24.17085 -80.43402,-32.2278 -28.647734,-8.05695 -46.277104,-18.41588 -42.971594,-26.47283 2.20367,-8.05695 28.64773,-89.77744 58.397304,-183.00785 l 52.88812,-170.34693 h 987.24496 987.2449 l 52.8881,170.34693 c 29.7496,93.23041 56.1937,174.9509 58.3973,183.00785 3.3056,8.05695 -14.3238,18.41588 -42.9715,26.47283 -25.3423,8.05695 -66.1102,24.17085 -90.3506,36.83177 -67.212,35.68078 -171.8864,32.2278 -261.1351,-9.20794 -95.8597,-44.88872 -185.1084,-44.88872 -285.3755,0 -51.7863,24.17085 -89.2487,32.2278 -137.7295,32.2278 -48.4807,0 -85.9432,-8.05695 -137.7294,-32.2278 -53.99,-24.17085 -89.2487,-32.2278 -143.2387,-32.2278 -53.99,0 -89.2487,8.05695 -143.2387,32.2278 -51.78623,24.17085 -89.24873,32.2278 -137.72948,32.2278 -48.48077,0 -85.94319,-8.05695 -137.72948,-32.2278 -98.06339,-43.73773 -189.51577,-44.88872 -280.96814,-3.45298 -74.92484,34.52978 -134.42398,44.88872 -198.33046,33.37879 z"
       id="path4"
       style="stroke-width:1.12615" />
  </g>
</svg>
