<?xml version="1.0" encoding="UTF-8" standalone="no"?>
<svg
   version="1.0"
   width="696.000000pt"
   height="687.000000pt"
   viewBox="0 0 696.000000 687.000000"
   preserveAspectRatio="xMidYMid meet"
   id="svg4"
   sodipodi:docname="glass.svg"
   inkscape:version="1.3.2 (1:1.3.2+202311252150+091e20ef0f)"
   xmlns:inkscape="http://www.inkscape.org/namespaces/inkscape"
   xmlns:sodipodi="http://sodipodi.sourceforge.net/DTD/sodipodi-0.dtd"
   xmlns="http://www.w3.org/2000/svg"
   xmlns:svg="http://www.w3.org/2000/svg">
  <defs
     id="defs4" />
  <sodipodi:namedview
     id="namedview4"
     pagecolor="#ffffff"
     bordercolor="#666666"
     borderopacity="1.0"
     inkscape:showpageshadow="2"
     inkscape:pageopacity="0.0"
     inkscape:pagecheckerboard="0"
     inkscape:deskcolor="#d1d1d1"
     inkscape:document-units="pt"
     inkscape:zoom="0.89082969"
     inkscape:cx="464.17402"
     inkscape:cy="458"
     inkscape:window-width="1848"
     inkscape:window-height="1016"
     inkscape:window-x="72"
     inkscape:window-y="27"
     inkscape:window-maximized="1"
     inkscape:current-layer="g4" />
  <g
     transform="translate(0.000000,687.000000) scale(0.100000,-0.100000)"
     fill="#000000"
     stroke="none"
     id="g4">
    <path
       id="path1"
       d="m 6215.1934,3414.9258 c -8.7653,0.087 -17.3553,3.8207 -23.5806,9.9573 -3.7709,3.7485 -6.6135,8.2899 -9.478,12.736 -10.2984,16.3137 -20.0431,32.9674 -29.8552,49.5754 -27.7231,47.1432 -55.0439,94.5217 -82.3433,141.9113 -52.5458,91.2695 -104.9436,182.6239 -157.4252,273.9308 -46.5045,80.9354 -93.0611,161.842 -139.7089,242.6943 -20.2485,35.1344 -40.3491,70.3538 -60.4488,105.5728 -35.3937,62.0698 -70.6548,124.215 -105.6565,186.5069 -3.8678,6.9175 -7.7687,13.8182 -11.5394,20.7886 -1.4463,2.8567 -2.4411,5.9342 -2.8893,9.106 -0.5494,3.2746 -0.4573,6.6496 0.129,9.9127 0.5063,2.7341 1.3339,5.4079 2.592,7.8937 0.9134,2.0849 2.2455,3.9569 3.6015,5.7747 3.5005,4.4106 8.2392,7.7586 13.4522,9.8464 6.1394,2.5 12.7646,3.4069 19.2899,4.2933 12.8641,1.6142 25.8165,2.372 38.7582,3.0444 26.2422,1.3024 52.5222,1.5817 78.793,1.5406 15.4052,0.03 30.8117,0.105 46.2137,0.4285 0.089,-5e-4 1.1475,0.03 1.5939,0.041 13.1535,0.3585 26.3344,0.767 39.4032,2.3973 5.3718,0.7439 10.7705,1.6603 15.8837,3.519 3.9789,1.4553 7.6063,3.7032 10.9623,6.2637 4.2519,3.1925 8.382,6.6429 11.7408,10.789 2.0756,2.6225 3.5807,5.7283 4.0331,9.062 0.9418,5.9819 0.1516,12.0704 -0.8607,17.9894 -2.0418,11.1469 -5.5072,21.9735 -9.2696,32.6434 -5.7028,16.044 -12.3508,31.732 -19.2172,47.3072 -0.1392,0.3032 -0.4888,1.0966 -0.7087,1.5877 -4.3324,9.7529 -8.7837,19.4526 -13.305,29.1193 -0.1759,0.3657 -0.5111,1.0864 -0.748,1.588 -3.7518,7.9879 -7.5582,15.95 -11.3848,23.9022 -0.154,0.3261 -0.5231,1.0808 -0.7595,1.5711 -6.512,13.4796 -13.1103,26.9172 -19.7522,40.3332 -0.3678,0.7315 -0.8609,1.7313 -1.2769,2.5658 -3.1259,6.3047 -6.3257,12.7083 -9.4321,18.9381 -2.2066,4.4008 -4.4152,8.8227 -6.6033,13.1682 -1.3892,2.7659 -2.8371,5.6383 -4.1897,8.3377 -8.3848,16.6483 -16.7861,33.2891 -25.4347,49.8025 -4.9032,9.3837 -9.8131,18.666 -14.8213,27.99 -0.8347,1.5602 -1.7845,3.3226 -2.5565,4.7505 -18.6185,34.4942 -37.978,68.5885 -58.1705,102.1863 -24.8883,41.4445 -51.0514,82.1238 -78.4545,121.9504 -0.2357,0.3343 -0.6824,0.9879 -0.9988,1.4444 -7.2786,10.5645 -14.6515,21.0639 -22.1008,31.5087 -0.2277,0.3111 -0.6998,0.9757 -1.0211,1.4221 -1.1359,1.5837 -2.3097,3.2254 -3.3877,4.7262 -13.0116,18.1023 -26.2969,36.0074 -39.8099,53.7384 -0.2502,0.3178 -0.7302,0.9532 -1.0684,1.3925 -1.2194,1.5938 -2.4388,3.1876 -3.6582,4.7814 -0.2334,0.3111 -0.7322,0.9516 -1.0671,1.3889 -1.225,1.5904 -2.4501,3.1808 -3.6751,4.7712 -0.2369,0.298 -0.7363,0.9485 -1.0737,1.3814 -3.0735,3.9767 -6.1699,7.9351 -9.2661,11.894 -0.3274,0.4085 -0.8661,1.1005 -1.2745,1.6177 -42.9033,54.6347 -88.1497,107.4097 -135.1044,158.5971 -0.5999,0.657 -1.3989,1.5215 -2.0752,2.2582 -24.3301,26.4598 -49.1053,52.5093 -74.2569,78.1891 -0.6946,0.7132 -1.5875,1.618 -2.3583,2.4049 -12.3455,12.5971 -24.7924,25.0949 -37.3911,37.439 -14.5544,14.3152 -29.2376,28.4992 -44.0338,42.5643 -0.2846,0.2743 -0.8715,0.8259 -1.2718,1.2064 -4.4719,4.2438 -8.9593,8.471 -13.4508,12.694 -0.3528,0.3345 -0.9736,0.9117 -1.4291,1.3392 -20.1605,18.9012 -40.5591,37.5484 -61.2115,55.9108 -0.3316,0.2987 -0.9481,0.8409 -1.3888,1.2328 -5.3661,4.7651 -10.7534,9.5061 -16.1523,14.234 -0.3935,0.3475 -1.0552,0.9208 -1.5515,1.3548 -20.03,17.4982 -40.3071,34.7136 -60.8313,51.6296 -0.2663,0.2133 -0.9286,0.761 -1.3467,1.1025 -9.3811,7.7109 -18.8078,15.3665 -28.2919,22.9502 -0.3099,0.2521 -0.9387,0.7488 -1.3706,1.0945 -65.3872,52.2193 -133.3961,101.1735 -203.879,146.2868 -7.6541,4.9053 -15.3416,9.7582 -23.0512,14.5757 -0.3777,0.2388 -1.0757,0.6699 -1.5761,0.9824 -70.9194,44.2225 -144.1948,84.6191 -219.0989,121.6754 -23.655,11.7229 -47.4909,23.0785 -71.4324,34.2036 -0.4753,0.2232 -1.2711,0.5879 -1.8692,0.8654 -21.4614,9.9419 -43.0331,19.6457 -64.709,29.1111 -0.3704,0.157 -1.1014,0.4781 -1.6098,0.6979 -41.4854,18.0765 -83.3786,35.2196 -125.6714,51.3178 -0.3665,0.142 -1.1228,0.4255 -1.6385,0.6217 -15.1425,5.7538 -30.3388,11.3661 -45.5822,16.847 -0.379,0.1395 -1.1304,0.4048 -1.652,0.5924 -12.612,4.5254 -25.2623,8.9438 -37.9418,13.2768 -0.363,0.1193 -1.1372,0.3854 -1.6576,0.5609 -17.9754,6.1219 -36.0208,12.038 -54.1295,17.7535 -0.3355,0.1085 -1.1457,0.3591 -1.6631,0.522 -6.5254,2.0539 -13.0613,4.0742 -19.6006,6.0835 -0.2932,0.084 -1.1489,0.3478 -1.658,0.5009 -10.0884,3.0779 -20.1992,6.0816 -30.3244,9.0362 -0.289,0.087 -1.1532,0.3331 -1.6631,0.4812 -38.6202,11.2008 -77.5181,21.4433 -116.6494,30.7024 -0.3966,0.096 -1.3084,0.3118 -1.7184,0.4055 -15.1846,3.5761 -30.4047,7.0002 -45.6546,10.2859 -0.3579,0.08 -1.1743,0.2507 -1.7078,0.3654 -12.236,2.6216 -24.4936,5.1421 -36.7688,7.574 -0.3852,0.079 -1.1782,0.2315 -1.7195,0.3386 -7.1357,1.4082 -14.2789,2.7768 -21.427,4.1204 -0.3938,0.07 -1.1805,0.2191 -1.7247,0.3193 -12.3004,2.302 -24.6208,4.4956 -36.955,6.6085 -0.3785,0.06 -1.1839,0.1998 -1.7259,0.2905 -9.7543,1.6601 -19.5203,3.2511 -29.2936,4.7954 -0.3892,0.064 -1.1863,0.1855 -1.7316,0.2715 -14.952,2.3447 -29.9264,4.5459 -44.9188,6.6172 -0.3984,0.05 -1.1897,0.1616 -1.7386,0.2353 -2.0174,0.2751 -4.0349,0.5501 -6.0524,0.8252 -0.3656,0.051 -1.1902,0.1584 -1.7316,0.2311 -34.5662,4.6278 -69.2292,8.5289 -103.9559,11.7357 -0.669,0.064 -1.66,0.1516 -2.4526,0.2247 -7.6759,0.7024 -15.5209,1.3863 -23.0982,2.0116 -15.8499,1.3137 -31.8161,2.4801 -47.6211,3.5196 -2.556,0.1627 -5.112,0.3255 -7.6679,0.4883 -0.4869,0.026 -1.3314,0.081 -1.9553,0.1177 -24.7771,1.5265 -49.5744,2.7197 -74.3826,3.6049 -0.7803,0.03 -1.8658,0.065 -2.7632,0.097 -14.8784,0.5175 -29.7606,0.9247 -44.645,1.2198 -1.0309,0.016 -2.3331,0.043 -3.4682,0.064 -6.3136,0.1219 -12.6277,0.22 -18.942,0.3072 -0.3778,9e-4 -1.1648,0.013 -1.6992,0.018 -27.4688,0.3353 -54.9415,0.3144 -82.4102,-0.025 -0.4462,-0 -1.2671,-0.017 -1.8568,-0.025 -6.9101,-0.091 -13.8197,-0.2092 -20.7291,-0.3425 -0.6719,-0.011 -1.6666,-0.035 -2.4623,-0.051 -18.9903,-0.3992 -37.9799,-0.834 -56.9674,-1.3516 -0.5633,-0.019 -1.4664,-0.043 -2.16,-0.064 -50.8158,-1.4355 -101.6211,-3.5847 -152.3302,-7.2249 -18.5051,-1.3409 -36.9549,-2.8755 -55.4278,-4.6621 -0.3594,-0.039 -1.1948,-0.1185 -1.7366,-0.173 -10.3526,-1.011 -20.6969,-2.1071 -31.0329,-3.2762 -0.3838,-0.048 -1.1928,-0.138 -1.7393,-0.2021 -1.6025,-0.1846 -3.2051,-0.3692 -4.8076,-0.5538 -0.3659,-0.04 -1.1924,-0.1411 -1.7347,-0.2044 -8.517,-1.0048 -17.0259,-2.0787 -25.5289,-3.196 -0.3571,-0.051 -1.19,-0.1603 -1.7293,-0.2338 -1.533,-0.2059 -3.0659,-0.4118 -4.5989,-0.6177 -0.3899,-0.05 -1.1896,-0.1631 -1.7363,-0.2373 -1.5106,-0.209 -3.3136,-0.4527 -4.642,-0.64 -25.487,-3.5518 -50.8944,-7.6663 -76.2135,-12.2634 -0.2772,-0.055 -1.1802,-0.218 -1.6979,-0.3145 -5.6166,-1.0244 -11.2265,-2.0842 -16.8353,-3.1503 -0.3086,-0.057 -1.1786,-0.2282 -1.7026,-0.3291 -2.519,-0.4886 -5.0381,-0.9772 -7.5571,-1.4658 -0.2925,-0.062 -1.1773,-0.2346 -1.6971,-0.3392 -17.9564,-3.5407 -35.8673,-7.3096 -53.7404,-11.2487 -0.3653,-0.085 -1.172,-0.2611 -1.7063,-0.381 -17.2365,-3.7959 -34.4183,-7.8333 -51.603,-11.8546 -30.2896,-6.9759 -60.7911,-13.1852 -91.6136,-17.2974 -28.1862,-3.7397 -56.7405,-5.7023 -85.144,-3.5569 -22.551,1.7187 -44.963,6.2321 -66.1282,14.2876 -21.267,8.0441 -41.1206,19.5574 -59.2466,33.2355 -11.8151,8.8344 -22.905,18.6513 -32.9543,29.4577 -20.5477,22.011 -36.8624,47.9318 -47.9503,75.9216 -14.8291,37.2985 -20.4858,78.0535 -17.3705,118.0215 3.8261,49.6179 21.0858,98.2581 50.1224,138.7373 18.145,25.3214 40.9288,47.3568 67.0829,64.3105 17.6913,11.4961 36.894,20.626 56.9053,27.2931 25.4559,8.7233 51.467,15.7085 77.5729,22.1836 39.4787,9.7072 79.3005,17.9628 119.2419,25.5198 59.3115,11.1906 118.9263,20.7368 178.6979,29.1119 68.9994,9.6296 138.2286,17.6694 207.6433,23.6396 27.2463,2.3301 54.5216,4.3424 81.8271,5.8334 64.2916,3.2876 128.691,4.1522 193.0569,3.4037 72.1077,-0.8623 144.1889,-3.8082 216.1319,-8.7466 63.8581,-4.4198 127.6192,-10.4078 191.104,-18.6308 20.8043,-2.6984 41.5507,-5.82 62.2811,-9.0322 104.6636,-16.3274 208.5129,-37.867 311.0426,-64.4869 80.7281,-20.9665 160.6384,-45.0797 239.4913,-72.2601 88.9368,-30.669 176.5292,-65.2363 262.445,-103.5619 94.2261,-42.037 186.438,-88.588 276.2162,-139.4364 96.3268,-54.5482 189.8474,-114.0482 280.0951,-178.1544 93.3482,-66.3193 183.183,-137.5837 269.0022,-213.3942 77.9253,-68.8453 152.5303,-141.4475 223.4682,-217.473 58.3405,-62.5581 114.2147,-127.4178 167.3904,-194.4221 67.2807,-84.7628 130.2646,-172.9373 188.5982,-264.0895 51.9201,-81.1389 100.1541,-164.6371 144.4753,-250.1643 38.5303,-74.3591 74.1021,-150.2513 106.5964,-227.4397 24.8484,-59.059 47.9123,-118.8696 69.1049,-179.3367 5.0342,-14.3811 9.9314,-28.8147 15.4297,-43.0278 5.4689,-14.2562 11.2931,-28.3789 17.598,-42.2865 0.1012,-0.2311 0.4994,-1.0908 0.715,-1.564 4.6553,-10.0592 9.4935,-20.0574 15.1386,-29.605 1.2949,-2.1094 2.5912,-4.2513 4.1556,-6.165 3.9563,-3.0843 8.987,-4.1666 13.7974,-5.1387 11.9346,-2.1999 24.0803,-2.8678 36.1789,-3.5055 2.2662,-0.1208 4.5343,-0.202 6.8016,-0.2991 0.3278,-0.01 1.1998,-0.044 1.7362,-0.063 6.2765,-0.2335 12.5551,-0.4068 18.8341,-0.5564 0.2698,-0.01 1.1997,-0.025 1.7235,-0.036 1.7614,-0.035 3.5229,-0.071 5.2843,-0.1064 0.3958,-0 1.2005,-0.02 1.7529,-0.029 6.4589,-0.117 12.9184,-0.2029 19.378,-0.2757 0.3896,10e-5 1.1712,-0.01 1.7109,-0.014 33.3147,-0.3451 66.6316,-0.1909 99.9471,-0.3569 34.8079,-0.2105 69.6178,-0.7168 104.4048,-1.9733 13.7448,-0.5272 27.4988,-1.0726 41.1993,-2.3339 6.9301,-0.6638 14.0807,-1.5589 20.2702,-4.9787 3.1852,-1.6905 5.9376,-4.063 8.4305,-6.6456 0.8305,-0.6889 1.4353,-1.5558 1.9406,-2.5013 1.3931,-2.2858 2.8685,-4.5535 3.9088,-7.0209 0.7331,-3.4317 1.5919,-6.8564 2.1153,-10.3191 -0.8371,-4.5242 -1.4306,-9.1876 -3.5117,-13.3544 -2.8635,-6.1965 -6.2361,-12.1387 -9.468,-18.1464 -14.7884,-27.0949 -29.9872,-53.9628 -45.1089,-80.8723 -36.1499,-64.1569 -72.5636,-128.1663 -108.9826,-192.1698 -45.4679,-79.8365 -91.0232,-159.6231 -136.6475,-239.3705 -49.9598,-86.8498 -99.874,-173.7261 -150.2047,-260.3617 -25.3286,-43.5648 -50.732,-87.0884 -76.6606,-130.2996 -13.8233,-22.9704 -27.7463,-45.8896 -42.4092,-68.3367 -7.5954,-11.5421 -15.3183,-23.0375 -24.0691,-33.746 -5.6344,-6.8279 -11.8948,-13.3893 -19.684,-17.7599 -5.6612,-3.1284 -12.0973,-4.9477 -18.5894,-4.7987 z" />
    <path
       id="path2"
       d="m 1044.9141,1496.6055 c -37.498,0.3678 -74.90912,8.927 -108.77189,25.0566 -33.86442,16.0613 -64.08644,39.6482 -88.10522,68.4034 -6.53316,7.8582 -12.85946,15.8859 -19.20948,23.8919 -39.66279,50.2722 -76.9286,102.4028 -112.50995,155.6317 -48.53091,72.6839 -93.8603,147.481 -136.54724,223.7359 -38.53946,68.8912 -74.88505,139.0108 -108.92431,210.2335 -33.87098,70.8713 -65.46237,142.8469 -94.11279,215.99 -16.10945,41.1368 -31.26182,82.653 -45.15251,124.593 -18.78003,56.3796 -35.99741,113.2789 -51.65958,170.6027 -15.30958,56.0707 -29.12015,112.5502 -41.41071,169.3589 -11.05891,51.1408 -20.87913,102.549 -29.4655,154.1625 -11.70859,70.4992 -21.1062,141.3827 -28.15151,212.4996 -9.18557,92.6862 -14.37377,185.768 -15.55597,278.9006 -1.40787,110.8655 2.87703,221.8027 12.84715,332.2282 9.19075,101.7831 23.20938,203.1315 42.02602,303.5821 16.58422,88.503 36.87988,176.3117 60.84885,263.1066 27.82697,100.7487 60.60651,200.1297 98.19955,297.6562 35.93308,93.1931 76.25908,184.6952 120.86097,274.0648 41.38639,82.1265 85.43188,162.943 133.04218,241.6367 36.22275,59.8519 74.49847,118.4932 115.62022,175.1033 9.413,12.9137 18.89773,25.7752 28.19863,38.7703 6.95589,9.6725 13.86928,19.3762 20.66157,29.1645 0.211,0.2999 0.68247,0.9879 0.99322,1.4365 9.61855,13.9682 19.1165,28.0392 27.72202,42.661 4.75759,8.2098 9.33181,16.5782 12.74108,25.4515 1.53858,4.2265 2.92199,8.6053 3.0993,13.1318 0.13055,3.3107 -0.65381,6.5937 -1.86364,9.6514 -3.39897,5.1764 -7.43531,9.8926 -11.38229,14.6515 -10.7,12.6814 -21.98318,24.8548 -33.3175,36.9675 -0.24412,0.2642 -0.82363,0.8737 -1.19619,1.2702 -1.20739,1.2797 -2.41478,2.5594 -3.62217,3.8392 -0.26999,0.2787 -0.79954,0.8432 -1.16993,1.2304 -28.30403,29.7501 -57.34634,58.7915 -86.83219,87.3683 -28.60249,27.5242 -56.97386,55.2967 -84.6987,83.7072 -11.4622,11.7711 -22.88036,23.5995 -33.70447,35.965 -3.70814,4.299 -7.40727,8.6712 -10.25218,13.6052 -2.7292,4.8234 -4.29356,10.321 -4.30413,15.8748 -0.0846,3.0696 0.73514,6.0563 1.04363,9.0928 1.55204,3.1257 3.0383,6.3013 4.78061,9.3198 3.06117,2.9863 6.06738,6.1606 9.92231,8.1342 4.68644,2.5455 9.85759,3.9737 14.89295,5.6463 18.09068,5.7836 36.30526,11.1677 54.49822,16.618 54.44409,16.2046 108.98669,32.0772 163.53406,47.9299 90.80436,26.3594 181.67531,52.4852 272.57021,78.5302 35.3362,10.1138 70.6901,20.2059 106.0063,30.4159 57.8551,16.6754 115.7454,33.2306 173.6576,49.7078 76.4544,21.7183 152.9446,43.31 229.5296,64.5633 36.1027,10.0183 72.2183,19.994 108.426,29.6273 8.9183,2.3579 17.8362,4.7337 26.8345,6.769 5.4251,1.1107 11.0243,1.2064 16.5226,0.6664 7.753,-0.8091 15.3828,-3.5799 21.5014,-8.4742 7.4432,-5.9071 12.373,-14.8088 13.5474,-24.2286 1.0333,-7.5031 -0.2347,-15.1321 -2.5336,-22.2886 -4.7492,-17.7887 -9.2865,-35.6333 -13.8888,-53.4604 -7.4189,-28.8278 -14.7788,-57.6707 -22.1627,-86.5075 -9.9975,-39.1769 -20.012,-78.443 -29.9886,-117.6612 -26.7736,-105.1957 -53.4302,-210.4723 -80.0179,-315.7348 -17.7399,-70.188 -35.4988,-140.3706 -53.3785,-210.5234 -23.2347,-91.2933 -46.5729,-182.5602 -70.197,-273.7546 -6.7354,-25.9137 -13.4403,-51.8368 -20.4324,-77.6828 -1.2237,-4.2256 -2.2566,-8.5736 -4.4346,-12.4367 -3.9688,-7.2466 -10.7975,-12.8764 -18.7033,-15.3061 -8.0451,-2.5711 -16.9022,-1.7544 -24.6775,1.3578 -7.8371,3.0288 -14.8551,7.7708 -21.6293,12.6652 -11.4073,8.3447 -22.103,17.6097 -32.6525,27.0008 -19.5198,17.4202 -38.2204,35.7267 -56.8657,54.0713 -15.682,15.3039 -31.401,30.605 -48.1112,44.7954 -9.0123,7.5943 -18.3339,14.9214 -28.5775,20.7989 -5.5934,3.133 -11.5618,5.9429 -17.9902,6.7295 -4.2324,0.4727 -8.5215,-0.4545 -12.3456,-2.2729 -6.4138,-2.9501 -11.9701,-7.4363 -17.1773,-12.1389 -9.9832,-9.1304 -18.6519,-19.5755 -26.9678,-30.2134 -14.6116,-18.8688 -27.9162,-38.7022 -40.9758,-58.6629 -1.0177,-1.5651 -2.0354,-3.1302 -3.0531,-4.6953 -0.2095,-0.332 -0.651,-1.0089 -0.9494,-1.4729 -14.7271,-22.7592 -29.0396,-45.783 -43.3045,-68.8337 -2.6566,-4.3092 -5.4106,-8.7597 -8.0804,-13.0814 -15.4351,-24.9483 -30.5713,-50.0835 -45.2024,-75.5126 -1.8722,-3.2373 -3.7236,-6.4864 -5.5844,-9.7303 -0.1891,-0.3412 -0.5929,-1.044 -0.8643,-1.5237 -42.91492,-75.3206 -82.02817,-152.804 -117.21965,-232.027 -0.14366,-0.3349 -0.48487,-1.0985 -0.70418,-1.5976 -1.06606,-2.4121 -2.13211,-4.8243 -3.19816,-7.2364 -0.15247,-0.3385 -0.48199,-1.0998 -0.70225,-1.6001 -17.88366,-40.7327 -34.72689,-81.9213 -50.54971,-123.4976 -0.14199,-0.3664 -0.42555,-1.1227 -0.62174,-1.6384 -12.36903,-32.5634 -24.09661,-65.3698 -35.21419,-98.3811 -0.10876,-0.3384 -0.38032,-1.1389 -0.55143,-1.6543 -13.83583,-41.2284 -26.70123,-82.7818 -38.61654,-124.6055 -0.10674,-0.3894 -0.32667,-1.1554 -0.47673,-1.6889 -6.38965,-22.5012 -12.5054,-45.0796 -18.34749,-67.729 -0.10411,-0.3948 -0.29852,-1.163 -0.4372,-1.7007 -0.53526,-2.0881 -1.07051,-4.1761 -1.60577,-6.2642 -0.1245,-0.5078 -0.34364,-1.3576 -0.50441,-1.9965 -9.48729,-37.3267 -18.23628,-74.8411 -26.26903,-112.5074 -0.087,-0.3921 -0.24923,-1.1745 -0.36502,-1.716 -0.45905,-2.1683 -0.91811,-4.3365 -1.37717,-6.5047 -0.10379,-0.5147 -0.28595,-1.3709 -0.41978,-2.0165 -6.57175,-31.3198 -12.63807,-62.7451 -18.23842,-94.253 -0.0669,-0.362 -0.20799,-1.1826 -0.3033,-1.7202 -4.66677,-26.4152 -9.02582,-52.8862 -13.01259,-79.4128 -0.69409,-4.7414 -1.32684,-9.4919 -1.8638,-14.2538 -0.046,-0.3747 -0.12919,-1.1395 -0.1914,-1.664 -0.28545,-2.566 -0.56094,-5.133 -0.82617,-7.7012 -0.0205,-0.2501 -0.11759,-1.1938 -0.16758,-1.7111 -0.0704,-0.7116 -0.14089,-1.4231 -0.21133,-2.1346 -0.0286,-0.2758 -0.11284,-1.1948 -0.16283,-1.7178 -0.60695,-6.3843 -1.11937,-12.777 -1.61256,-19.1709 -0.0319,-0.403 -0.0864,-1.1975 -0.127,-1.7504 -1.78521,-24.3832 -2.93034,-48.8088 -3.81245,-73.2398 -0.0188,-0.446 -0.0439,-1.2665 -0.0652,-1.8559 -0.16945,-4.815 -0.33096,-9.7874 -0.47586,-14.5054 -0.1979,-6.355 -0.37251,-12.7105 -0.53711,-19.0664 -0.0156,-0.7471 -0.0433,-1.7997 -0.0635,-2.6641 -0.55318,-22.1199 -0.9147,-44.2441 -1.18451,-66.3691 -0.003,-0.6721 -0.0165,-1.6669 -0.0236,-2.4628 -0.55095,-49.1998 -0.53486,-98.4038 -0.31575,-147.6056 0.019,-48.2425 0.0384,-96.486 0.52876,-144.7266 0.1376,-12.5757 0.31563,-25.27 0.55287,-37.8901 0.0436,-2.2243 0.0841,-4.2762 0.13445,-6.5094 0.13655,-6.5354 0.3082,-13.2973 0.48846,-19.6883 0.0775,-2.5899 0.15495,-5.1797 0.23242,-7.7696 0.008,-0.2887 0.0377,-1.1739 0.0586,-1.6894 0.24934,-7.5961 0.54597,-15.1906 0.88282,-22.7832 0.0126,-0.3192 0.0544,-1.1493 0.0781,-1.6641 0.16258,-3.4641 0.33906,-6.9276 0.52344,-10.3906 0.0185,-0.3779 0.0664,-1.1989 0.0962,-1.7465 0.43923,-8.0212 0.96419,-16.0376 1.56399,-24.0484 0.0264,-0.285 0.0942,-1.1966 0.13652,-1.7223 1.99637,-26.0282 5.13259,-51.9627 9.20129,-77.7466 4.55358,-29.0504 10.08801,-57.9336 15.36281,-86.8585 1.2918,-6.9385 2.59284,-13.8752 3.92829,-20.8055 0.15231,-0.8044 0.36666,-1.8984 0.54279,-2.814 0.26439,-1.3628 0.57448,-2.9795 0.81073,-4.186 3.39162,-17.406 6.91573,-34.7861 10.58984,-52.1347 0.0879,-0.3919 0.2513,-1.1741 0.3681,-1.7154 3.72881,-17.5423 7.61186,-35.0517 11.64362,-52.5268 0.0874,-0.3883 0.2717,-1.1696 0.39619,-1.7083 7.73863,-33.4452 16.06984,-66.7526 24.96514,-99.9089 0.0633,-0.249 0.30541,-1.1265 0.4375,-1.6172 5.09251,-18.85 10.35483,-37.6609 15.82226,-56.4082 18.24888,-62.5323 38.73595,-124.6211 61.49537,-185.7393 0.42304,-1.1372 0.89944,-2.4197 1.27219,-3.4223 10.22098,-27.3366 20.89373,-54.5042 32.01565,-81.4868 0.14763,-0.366 0.45922,-1.1094 0.66962,-1.6199 1.81134,-4.3842 3.63907,-8.7615 5.46905,-13.1379 0.15043,-0.3648 0.46595,-1.1066 0.67958,-1.6158 18.88887,-44.9334 39.05606,-89.3288 60.44737,-133.1264 0.22684,-0.4738 0.61572,-1.2578 0.90467,-1.8506 14.31309,-29.2556 29.20069,-58.2294 44.5914,-86.9326 0.1626,-0.2921 0.5704,-1.0565 0.827,-1.5297 40.7179,-75.7615 85.1628,-149.5067 132.8162,-221.1046 21.0408,-31.6302 42.7453,-62.8162 64.9506,-93.6392 19.3233,-27.0346 38.4399,-54.2466 56.0427,-82.4435 12.4527,-20.0181 24.1433,-40.601 33.3366,-62.3423 7.3022,-17.3142 12.7985,-35.4589 15.432,-54.0906 2.9412,-20.3658 2.452,-41.083 0.2082,-61.4917 -2.7593,-25.9718 -8.2389,-51.8352 -18.3711,-75.9841 -7.6371,-18.2703 -17.9006,-35.3996 -30.0782,-50.9999 -7.5788,-9.7278 -15.7937,-18.9598 -24.5285,-27.6627 -26.851,-26.2133 -59.11,-46.9449 -94.3136,-60.0055 -29.9825,-11.1667 -62.0114,-16.8237 -94.0078,-16.5232 -0.097,2e-4 -0.1938,4e-4 -0.2906,6e-4 z" />
    <path
       d="M3640 5608 c-85 -43 -108 -116 -96 -297 7 -112 23 -149 78 -183 l37 -23 1 -302 0 -302 -117 -58 c-65 -31 -121 -59 -125 -61 -5 -2 -8 30 -8 72 l0 76 40 26 c65 43 80 88 80 239 0 156 -16 200 -85 240 l-43 26 -468 -3 -469 -3 -33 -24 c-17 -14 -41 -44 -53 -68 -19 -39 -21 -57 -17 -186 3 -132 5 -144 28 -175 13 -18 39 -41 57 -52 l34 -20 -3 -332 -3 -333 -155 -228 c-85 -125 -162 -239 -170 -252 -8 -14 -158 -238 -333 -499 -215 -321 -324 -494 -337 -532 -37 -106 -22 -242 35 -334 38 -60 107 -121 175 -154 l65 -31 1195 -3 c1238 -3 1394 1 1521 37 441 126 778 423 937 826 115 290 124 652 25 945 -100 294 -279 526 -548 711 -41 29 -166 94 -272 142 l-23 10 0 298 0 298 23 12 c33 17 67 51 84 83 11 22 15 62 14 166 0 178 -14 213 -96 251 -37 17 -75 19 -485 19 -443 0 -446 0 -490 -22z m860 -246 c0 -45 -2 -50 -35 -68 -19 -10 -45 -32 -57 -49 l-23 -30 0 -415 c0 -475 -1 -470 78 -490 267 -69 554 -305 689 -571 92 -180 124 -301 135 -513 l5 -99 -78 -76 c-145 -140 -331 -206 -609 -218 -147 -7 -226 7 -475 84 -98 30 -115 44 -175 145 -5 9 -115 173 -244 365 -129 191 -250 370 -268 398 -33 49 -33 51 -33 165 0 132 -5 122 101 192 69 45 187 99 289 131 40 12 47 19 64 63 18 45 20 81 24 405 2 251 0 370 -8 400 -11 39 -44 80 -104 127 -10 8 -16 28 -16 57 l0 45 370 0 370 0 0 -48z m-1190 -570 c0 -45 -3 -51 -37 -73 -20 -13 -46 -37 -57 -52 -20 -27 -21 -42 -24 -405 -4 -454 -6 -443 107 -610 42 -62 110 -165 151 -227 41 -63 157 -236 257 -386 101 -149 180 -275 177 -280 -7 -12 -1871 -12 -1879 1 -4 7 563 871 586 890 25 22 85 142 96 193 16 80 18 723 2 782 -12 42 -67 105 -93 105 -13 0 -16 11 -16 55 l0 55 365 0 365 0 0 -48z"
       id="path3" />
    <path
       id="path4"
       d="m 2497.3926,121.04688 c -3.0779,0.4281 -6.2184,0.88469 -9.0254,2.29882 -2.6269,1.00012 -5.102,2.40558 -7.2108,4.27 -4.3012,3.45701 -7.6076,7.92471 -11.0956,12.1534 -11.5447,14.36119 -22.7553,28.98659 -34.0081,43.57625 -28.442,36.97801 -56.652,74.13338 -84.8496,111.29795 -85.5145,112.82111 -170.6073,225.9613 -255.5596,339.206 -65.271,87.05159 -130.4307,174.18675 -195.3651,261.48928 -34.3171,46.18024 -68.6092,92.3795 -102.6139,138.79112 -11.3447,15.5635 -22.7337,31.0973 -33.8078,46.8554 -2.721,3.9926 -5.5936,7.9006 -7.9426,12.1301 -1.8981,3.4043 -3.1306,7.1474 -3.7571,10.9888 -1.7273,9.6953 0.3311,20.0671 5.9231,28.2085 5.3346,7.8662 13.6663,13.5067 22.8097,15.9704 4.2269,1.1896 8.6206,1.6246 12.9948,1.7804 14.6944,1.3366 29.315,2.9974 43.9769,4.5583 32.2053,3.4873 64.4497,7.0943 96.6092,10.7007 89.9901,10.1027 179.9552,20.4239 269.9115,30.8236 101.334,11.7107 202.7178,23.7001 304.0917,35.3446 91.6119,10.5436 183.2406,20.9485 274.899,31.0816 42.8772,4.733 85.7591,9.4237 128.6706,13.8342 12.1752,1.2332 24.3504,2.4915 36.5527,3.424 5.8961,0.3178 11.8033,0.108 17.7046,0.1697 19.5299,0 39.0599,0 58.5898,0 -27.0558,-61.7859 -54.1335,-123.5617 -81.159,-185.3608 -10.1464,-23.3828 -20.256,-46.7855 -29.8185,-70.4146 -2.6893,-6.684 -5.3464,-13.3819 -7.8897,-20.123 -0.1306,-0.3421 -0.4197,-1.125 -0.6111,-1.6359 -4.6457,-12.50881 -9.1668,-25.11931 -12.0881,-38.16107 -1.2689,-5.94223 -2.309,-12.08895 -1.4444,-18.1638 0.766,-4.40705 2.6618,-8.53634 4.8516,-12.40365 2.1715,-3.1231 5.6023,-5.04241 8.9204,-6.73029 8.157,-4.02267 16.962,-6.48848 25.7323,-8.77079 4.1644,-1.05896 8.8283,-2.10908 12.7333,-2.94015 24.1273,-5.03901 48.5579,-8.43497 72.9864,-11.62777 9.2642,-1.2016 18.5411,-2.30073 27.8161,-3.41427 0.3313,-0.0353 1.1402,-0.13245 1.6543,-0.19141 8.7554,-1.0137 17.5132,-2.00629 26.2735,-2.97656 1.1986,-0.13399 2.6508,-0.29029 3.947,-0.43286 7.4347,-0.8171 14.8722,-1.60968 22.3108,-2.39136 1.1994,-0.12666 2.6525,-0.2749 3.9494,-0.40986 4.5206,-0.4714 9.0426,-0.92827 13.5642,-1.38897 0.2757,-0.0297 1.1945,-0.11591 1.7175,-0.16734 15.3078,-1.50164 30.632,-2.83008 45.9681,-4.00844 0.4865,-0.0393 1.33,-0.1005 1.9533,-0.14819 1.6714,-0.12464 3.4362,-0.26148 4.9968,-0.37342 4.1304,-0.30522 8.2616,-0.59844 12.3936,-0.88073 0.3863,-0.0285 1.1981,-0.0795 1.7473,-0.11664 25.1428,-1.69506 50.3122,-2.9919 75.4949,-3.91852 0.3787,-0.0171 1.2,-0.0418 1.7482,-0.0618 6.1237,-0.21067 12.2064,-0.4282 18.2991,-0.59735 0.6766,-0.0194 1.2844,-0.0398 1.8627,-0.0554 15.8846,-0.43775 31.7725,-0.75515 47.6623,-0.92801 0.4043,-10e-6 1.2006,-0.0103 1.755,-0.0143 20.8891,-0.20691 41.9158,-0.17502 62.7196,0.0748 7.1836,0.0919 14.5949,0.21533 21.6348,0.3457 12.0777,0.24904 24.1542,0.556 36.2285,0.93945 0.3702,0.0168 1.2,0.0413 1.7462,0.061 3.4715,0.11524 7.0128,0.24101 10.5155,0.36085 0.3956,0.019 1.1998,0.0457 1.7519,0.0676 2.5866,0.0973 5.1732,0.1945 7.7598,0.29174 0.3193,0.0106 1.1995,0.0499 1.734,0.0715 21.4151,0.8611 42.821,1.95028 64.2133,3.26056 0.3694,0.0266 1.1983,0.0762 1.7437,0.11164 13.8007,0.85695 27.5952,1.81165 41.3832,2.8532 0.7446,0.0543 1.795,0.13735 2.657,0.20269 6.2095,0.48453 12.5981,0.98443 18.8755,1.51021 1.9046,0.1604 3.9228,0.32434 5.7138,0.47991 10.1085,0.86045 20.2126,1.7715 30.3123,2.72906 0.6686,0.0683 1.6592,0.16055 2.4514,0.23804 3.4394,0.33061 6.8929,0.66359 10.2671,1.00563 29.5535,2.94044 59.0627,6.32496 88.514,10.15672 0.7279,0.0921 1.7618,0.23078 2.6074,0.33985 16.3829,2.15478 32.747,4.45199 49.0918,6.87891 0.3137,0.052 1.1869,0.18023 1.7153,0.26148 3.4555,0.52286 6.9111,1.04573 10.3667,1.56859 0.3123,0.0447 1.1863,0.18426 1.7141,0.26536 20.7878,3.2103 41.5379,6.66603 62.2468,10.35183 0.4783,0.0897 1.3127,0.23679 1.9274,0.34847 1.7671,0.31882 3.6083,0.64833 5.2718,0.94944 1.8606,0.34037 3.9295,0.71534 5.6602,1.03412 24.4098,4.50062 48.7582,9.33666 73.0215,14.57031 0.3236,0.074 1.173,0.25624 1.6981,0.37174 5.7913,1.25285 11.5758,2.53621 17.3585,3.82748 0.3129,0.0677 1.1709,0.26539 1.6929,0.38294 32.1926,7.26955 64.2249,15.23774 96.1196,23.71667 0.2828,0.0796 1.1238,0.30481 1.6211,0.4375 13.2415,3.54607 26.4566,7.1892 39.6446,10.92969 0.3737,0.1107 1.1543,0.33037 1.6838,0.48278 35.0636,9.98127 69.9238,20.67752 104.5505,32.08172 0.3562,0.1146 1.14,0.3771 1.6599,0.5484 10.5985,3.4962 21.1715,7.0695 31.7269,10.6937 0.3471,0.1247 1.1345,0.3932 1.6502,0.573 34.0576,11.7455 67.88,24.1749 101.4357,37.2845 0.2942,0.112 1.1174,0.4389 1.6146,0.6333 20.331,7.9587 40.5609,16.1747 60.6959,24.6167 0.3055,0.1255 1.1063,0.4665 1.6017,0.6746 6.517,2.7364 13.0162,5.5147 19.5116,8.3019 0.3287,0.1387 1.1023,0.4762 1.6014,0.691 8.6618,3.7315 17.3015,7.5137 25.926,11.3305 0.3201,0.1474 1.0965,0.4893 1.5914,0.7112 14.7194,6.5372 29.3766,13.2144 43.9769,20.0134 0.3382,0.1549 1.0877,0.5088 1.5833,0.7398 2.4963,1.1688 4.9927,2.3375 7.489,3.5063 0.3064,0.1506 1.0851,0.514 1.5725,0.7461 8.5321,4.0214 17.0404,8.0932 25.533,12.1973 0.3088,0.1464 1.0798,0.525 1.5657,0.7604 56.2354,27.2876 111.5108,56.5512 165.7065,87.6936 0.3054,0.1795 0.9838,0.5698 1.4686,0.8504 32.0852,18.4734 63.7874,37.6111 95.0853,57.3889 0.2793,0.1825 1.0133,0.6441 1.4669,0.9336 59.403,37.6021 117.325,77.5406 173.5941,119.687 0.5122,0.3823 1.0244,0.7647 1.5367,1.147 0.2401,0.1768 0.9589,0.7221 1.3828,1.0403 2.798,2.1104 5.8866,4.4326 8.5034,6.4109 37.6194,28.4875 74.4895,57.9639 110.565,88.3828 0.2859,0.237 0.9169,0.7753 1.3349,1.1276 1.7653,1.4939 3.5306,2.9879 5.2959,4.4818 0.3063,0.2668 0.9138,0.7788 1.3354,1.1395 59.0253,50.1601 115.8731,102.8786 170.3725,157.922 18.3306,18.5163 36.3898,37.3015 54.1788,56.3389 0.4869,0.5173 1.1823,1.2678 1.7492,1.8747 58.0259,62.2261 113.1159,127.1894 165.036,194.594 0.243,0.3084 0.7318,0.952 1.0689,1.3886 1.2387,1.6133 2.4775,3.2266 3.7163,4.8399 0.2678,0.357 0.7685,1.0076 1.1255,1.4771 7.581,9.9116 15.0891,19.8788 22.5327,29.894 0.2715,0.3584 0.7547,1.018 1.1073,1.4917 25.4441,34.2936 50.0785,69.1878 73.877,104.6431 0.2087,0.3184 0.6673,0.9982 0.9717,1.455 31.9066,47.6001 62.3056,96.2096 91.1475,145.7266 0.1698,0.2835 0.6026,1.0385 0.8732,1.5027 8.7793,15.0993 17.4089,30.2853 25.9041,45.5462 0.1688,0.2971 0.5819,1.0502 0.8444,1.5221 18.9912,34.2016 37.2409,68.8144 54.7533,103.7962 0.1518,0.3145 0.5348,1.0751 0.7751,1.5604 15.8736,31.7661 31.1184,63.8459 45.7444,96.2052 0.1586,0.3443 0.4933,1.0948 0.7193,1.5946 18.9134,41.9035 36.7284,84.3004 53.5466,127.0872 12.8182,32.245 26.5231,64.1429 41.2986,95.5409 6.987,14.781 14.1636,29.4869 22.139,43.7642 3.8172,6.8319 7.868,13.567 12.7613,19.6928 21.3819,27.4326 49.4385,49.3196 80.4233,64.9341 27.2433,13.704 56.8527,22.7376 87.1348,26.3966 36.8811,4.5026 74.7269,2.0543 110.4712,-8.2654 30.4356,-8.7505 59.2692,-23.1746 84.3021,-42.5978 26.7922,-20.7306 49.162,-47.1338 65.2254,-76.9582 14.2822,-26.4399 23.6457,-55.4713 27.9125,-85.202 2.3628,-16.4376 3.2665,-33.0895 2.659,-49.6853 -0.9146,-19.8131 -4.5322,-39.3918 -9.022,-58.6753 -6.7312,-28.5945 -15.6406,-56.6265 -25.3459,-84.3363 -12.248,-34.8415 -25.9497,-69.1557 -40.3501,-103.1585 -23.3117,-54.9761 -48.5335,-109.1233 -74.689,-162.7982 -35.5782,-72.9961 -73.4465,-144.8868 -113.9197,-215.2906 -45.711,-79.541 -94.8335,-157.1346 -147.5261,-232.238 -51.0151,-72.776 -105.3849,-143.191 -162.6879,-211.1233 -41.6932,-49.456 -84.9351,-97.5995 -129.45,-144.5297 -39.8957,-42.06 -80.7912,-83.1698 -122.557,-123.3726 -100.5587,-96.6357 -207.0049,-187.1831 -318.9503,-270.3779 -109.4723,-81.38492 -224.1959,-155.72436 -343.3578,-222.12742 -65.6957,-36.62169 -132.7305,-70.83999 -200.9225,-102.57184 -103.9778,-48.3882 -210.6411,-90.98675 -319.2876,-127.70438 -51.7506,-17.50515 -103.9567,-33.65691 -156.5194,-48.54508 -77.7051,-22.09076 -156.1032,-41.83647 -235.2513,-58.05957 -53.3778,-10.95701 -107.0836,-20.31699 -161.0263,-28.02748 -71.0215,-10.15231 -142.4374,-17.44384 -213.9996,-22.46715 -62.9115,-4.42167 -125.9345,-7.15376 -188.9784,-8.76203 -91.6598,-2.15964 -183.426,-2.62463 -275.0221,1.97717 -59.0259,2.92366 -117.9366,8.02741 -176.6204,14.99345 -62.6691,7.42226 -125.0934,16.77619 -187.3634,26.98782 -31.1855,5.22805 -62.3657,10.51991 -93.6752,14.96188 -2.9238,0.40798 -5.8494,0.80304 -8.7762,1.18946 -0.2243,0.0313 -1.1894,0.15194 -1.6996,0.21773 -11.0163,1.37862 -22.0657,2.68475 -33.173,2.98612 -4.0553,0.0307 -8.1556,0.0511 -12.1519,-0.7241 -1.8956,-0.39457 -3.7795,-1.09868 -5.3319,-2.25738 -4.1889,-4.69096 -7.48,-10.08482 -10.7928,-15.40567 -9.1941,-15.27914 -17.2025,-31.23149 -25.011,-47.25129 -11.2339,-23.21645 -21.7453,-46.77484 -32.0214,-70.42825 -6.2469,-14.35362 -12.1439,-28.85602 -18.346,-43.22885 -9.5219,-22.23631 -19.2642,-44.3808 -29.4444,-66.32408 -5.6919,-12.21317 -11.4194,-24.42299 -17.8435,-36.27247 -3.3694,-6.18494 -7.0879,-12.45067 -12.7288,-16.84366 -3.3501,-2.69174 -7.3145,-4.48846 -11.4041,-5.73626 -1.2879,-0.38842 -2.6696,-0.35562 -3.9871,-0.63834 -1.7669,-0.23635 -3.5719,-0.41104 -5.3477,-0.25776 -0.28,0.043 -0.5599,0.0861 -0.8398,0.12911 z" />
  </g>
</svg>
