<?xml version="1.0" standalone="no"?>
<!DOCTYPE svg PUBLIC "-//W3C//DTD SVG 20010904//EN"
 "http://www.w3.org/TR/2001/REC-SVG-20010904/DTD/svg10.dtd">
<svg version="1.0" xmlns="http://www.w3.org/2000/svg"
 width="718.000000pt" height="918.000000pt" viewBox="0 0 718.000000 918.000000"
 preserveAspectRatio="xMidYMid meet">

<g transform="translate(0.000000,918.000000) scale(0.100000,-0.100000)"
fill="#000000" stroke="none">
<path d="M3390 9120 c-324 -32 -607 -196 -813 -472 -71 -95 -1301 -2248 -1290
-2259 19 -19 718 -368 724 -361 3 4 255 457 559 1007 304 550 565 1018 580
1040 72 105 221 200 332 212 114 12 255 -42 332 -128 24 -27 60 -73 79 -102
47 -71 667 -1126 667 -1135 0 -4 -167 -133 -371 -287 l-371 -280 832 -3 c458
-1 835 0 837 2 6 5 534 1579 531 1581 -2 1 -174 -121 -383 -271 -209 -151
-383 -274 -386 -274 -3 0 -196 303 -430 672 -446 708 -469 740 -595 825 -166
113 -408 203 -627 232 -85 12 -94 12 -207 1z"/>
<path d="M5453 6192 c-183 -114 -333 -211 -333 -215 0 -5 261 -480 579 -1056
360 -651 586 -1070 597 -1107 26 -88 24 -207 -5 -267 -45 -93 -193 -194 -343
-234 -55 -14 -142 -17 -680 -20 l-618 -4 -2 470 -3 470 -470 -661 c-258 -364
-471 -667 -473 -674 -2 -7 210 -317 470 -690 l473 -677 3 471 2 471 753 4
c686 3 758 5 822 22 258 67 511 244 687 480 79 106 171 295 205 420 25 91 27
115 27 280 0 165 -3 188 -28 280 -15 55 -44 141 -66 190 -41 96 -1241 2247
-1256 2252 -5 1 -159 -91 -341 -205z"/>
<path d="M1135 6010 c-247 -49 -604 -119 -793 -156 -219 -42 -342 -70 -339
-77 2 -6 182 -95 400 -197 218 -102 397 -188 397 -192 0 -3 -153 -300 -340
-658 -187 -358 -352 -684 -365 -724 -91 -270 -69 -581 60 -853 140 -297 389
-515 710 -622 172 -57 151 -56 1515 -56 l1255 0 3 407 2 407 -1227 4 c-1311 3
-1265 1 -1359 50 -57 29 -110 101 -130 174 -15 57 -16 76 -6 144 6 43 23 113
37 156 14 43 147 324 297 625 l272 546 409 -204 c225 -113 411 -203 413 -201
2 2 -156 343 -350 758 -343 728 -356 754 -383 756 -15 0 -230 -39 -478 -87z"/>
<path d="M2872 5868 l3 -233 387 -5 386 -5 -309 -820 c-170 -451 -309 -823
-309 -828 0 -4 113 -6 252 -5 l251 3 334 884 333 883 0 179 0 179 -665 0 -665
0 2 -232z"/>
<path d="M2510 715 l0 -705 185 0 185 0 0 243 0 244 168 7 c197 7 246 16 327
55 159 78 244 240 233 441 -11 180 -109 324 -260 382 -72 27 -225 37 -560 38
l-278 0 0 -705z m625 365 c60 -14 95 -58 95 -120 0 -40 -5 -56 -28 -81 -34
-38 -79 -48 -219 -49 l-103 0 0 130 0 130 108 0 c59 0 125 -5 147 -10z"/>
<path d="M4146 1394 c-192 -47 -323 -184 -388 -409 -20 -71 -23 -101 -23 -270
0 -214 11 -275 71 -403 44 -91 133 -188 211 -230 162 -86 379 -90 566 -10 l47
20 0 215 0 215 -52 -48 c-113 -101 -202 -142 -287 -130 -136 19 -198 151 -188
406 5 141 23 209 69 264 41 50 80 68 149 68 76 0 143 -32 234 -110 l70 -60 3
201 c1 111 0 207 -2 213 -7 17 -89 52 -161 69 -76 18 -242 18 -319 -1z"/>
</g>
</svg>
