<?xml version="1.0" encoding="UTF-8" standalone="no"?>
<!-- Created with Inkscape (http://www.inkscape.org/) -->

<svg
   version="1.1"
   id="svg1"
   width="225.94667"
   height="289.21332"
   viewBox="0 0 225.94667 289.21332"
   sodipodi:docname="polystyrene2.svg"
   inkscape:version="1.3.2 (1:1.3.2+202311252150+091e20ef0f)"
   xmlns:inkscape="http://www.inkscape.org/namespaces/inkscape"
   xmlns:sodipodi="http://sodipodi.sourceforge.net/DTD/sodipodi-0.dtd"
   xmlns="http://www.w3.org/2000/svg"
   xmlns:svg="http://www.w3.org/2000/svg">
  <defs
     id="defs1" />
  <sodipodi:namedview
     id="namedview1"
     pagecolor="#ffffff"
     bordercolor="#666666"
     borderopacity="1.0"
     inkscape:showpageshadow="2"
     inkscape:pageopacity="0.0"
     inkscape:pagecheckerboard="0"
     inkscape:deskcolor="#d1d1d1"
     inkscape:zoom="1.288083"
     inkscape:cx="-83.457357"
     inkscape:cy="37.26468"
     inkscape:window-width="1848"
     inkscape:window-height="1016"
     inkscape:window-x="72"
     inkscape:window-y="27"
     inkscape:window-maximized="1"
     inkscape:current-layer="g1">
    <inkscape:page
       x="0"
       y="0"
       inkscape:label="1"
       id="page1"
       width="225.94667"
       height="289.21332"
       margin="0"
       bleed="0" />
  </sodipodi:namedview>
  <g
     id="g1"
     inkscape:groupmode="layer"
     inkscape:label="1">
    <path
       id="path1"
       style="fill:#231f20;fill-opacity:1;fill-rule:nonzero;stroke:none;stroke-width:0.127784"
       d="m 109.83937,1.6628696 c -6.93278,0.085 -13.912376,2.06182 -19.584678,6.113801 C 84.852943,11.486259 80.518258,16.613321 77.417058,22.362668 64.9522,44.203537 52.489418,66.045589 40.023257,87.885714 c 7.689005,3.91634 15.383415,7.82241 23.070502,11.74209 11.704634,-21.132516 23.386312,-42.278262 35.107607,-63.401224 1.646561,-2.870372 4.026524,-5.397397 7.082424,-6.762877 1.93221,-0.976867 4.099,-1.646498 6.28329,-1.331059 3.28232,0.302302 6.52747,1.721507 8.68726,4.263259 2.68977,2.976639 4.40785,6.646182 6.50319,10.031678 5.64473,9.596448 11.28945,19.192896 16.93417,28.789344 -7.91851,5.967465 -15.8374,11.934429 -23.7556,17.902339 17.62656,0 35.25311,0 52.87966,0 5.63225,-16.744751 11.26569,-33.489094 16.89528,-50.234737 -8.18077,5.875719 -16.36245,11.750177 -24.54364,17.625304 -8.67208,-13.724801 -17.31093,-27.471037 -26.0037,-41.182486 -2.22493,-3.330724 -5.40643,-5.9032654 -8.89313,-7.8205724 -4.99648,-2.830647 -10.56192,-4.573571 -16.20879,-5.526233 -1.39601,-0.225077 -2.80671,-0.369586 -4.22241,-0.31767 z m 70.94296,86.7544444 c -6.61578,4.11859 -13.23104,8.23803 -19.84718,12.356046 12.02517,21.75733 24.07642,43.50132 36.08307,65.26818 0.97752,1.77667 1.58067,3.73825 1.72635,5.76277 0.25901,2.22787 0.15093,4.6383 -1.1755,6.54096 -1.90878,2.80604 -4.98499,4.59558 -8.10917,5.75556 -3.43161,1.27395 -7.13316,1.42563 -10.75419,1.34937 -10.79657,5.9e-4 -21.59312,9.6e-4 -32.38968,0.002 10e-6,-9.87711 0,-19.75422 0,-29.63133 -10.03656,14.11366 -20.07124,28.22866 -30.10677,42.34304 10.03687,14.37676 20.07307,28.75397 30.10677,43.13294 10e-6,-10.00064 0,-20.0013 0,-30.00194 14.95545,-0.01 29.91141,0.0187 44.86654,-0.014 6.43325,-0.21296 12.46519,-3.11001 17.59322,-6.83694 5.54302,-4.07789 10.06477,-9.526 12.99003,-15.75879 3.40956,-7.04177 4.41217,-15.24817 2.59248,-22.87372 -1.02453,-4.75757 -2.98649,-9.26631 -5.46602,-13.43947 -12.13546,-21.67195 -24.27142,-43.34362 -36.40656,-65.015726 -0.5678,0.35378 -1.1356,0.70756 -1.70339,1.06133 z m -130.819571,8.69286 c -17.046914,3.303116 -34.093703,6.606876 -51.1407054,9.909536 8.797917,4.1139 17.5966134,8.22612 26.3949014,12.33922 -7.031058,13.47518 -14.102995,26.92989 -21.1085564,40.41783 -2.236176,4.70337 -3.16660202,9.97699 -3.043353,15.16505 0.264029,9.40273 4.198214,18.64698 10.8337244,25.32205 4.418373,4.43784 9.982768,7.73074 15.978587,9.52567 4.400669,1.30567 9.020371,1.59969 13.587969,1.5033 24.322518,5.9e-4 48.645036,9.6e-4 72.967554,0.002 0,-8.61423 0,-17.22848 0,-25.84271 -24.657125,-0.009 -49.314571,0.0166 -73.971493,-0.0125 -3.065338,-0.10909 -6.393292,-0.49674 -8.831235,-2.53594 -2.360182,-2.0105 -3.290571,-5.26091 -2.966844,-8.27486 0.420424,-3.86072 1.889031,-7.51941 3.494507,-11.02337 5.223056,-10.49845 10.446111,-20.99687 15.669168,-31.49531 8.782658,4.38457 17.566252,8.76726 26.348105,13.15346 -7.58247,-16.14581 -15.16458,-32.29179 -22.746674,-48.437756 -0.488551,0.0948 -0.977103,0.18968 -1.465655,0.28452 z" />
    <path
       id="path2"
       style="fill:#231f20;fill-opacity:1;fill-rule:nonzero;stroke:none;stroke-width:0.114084"
       d="m 79,246.24778 c 0,14.18926 0,28.37852 0,42.56777 3.8977,0 7.7954,0 11.6931,0 0,-5.1338 0,-10.2676 0,-15.40141 4.278004,-0.0364 8.612724,0.16786 12.82802,-0.69657 3.61657,-0.90676 6.83323,-3.36834 8.53698,-6.70189 1.64014,-3.1045 1.85277,-6.77981 1.36327,-10.20227 -0.52337,-3.69501 -2.69234,-7.11739 -5.85132,-9.11457 -2.05027,-1.36108 -4.52074,-1.86076 -6.94437,-1.97512 -5.251066,-0.3208 -10.516174,-0.13789 -15.773615,-0.1872 -1.950688,0 -3.901377,0 -5.852065,0 0,0.57042 0,1.14085 0,1.71126 z m 13.934124,8.6282 c 2.04422,0.062 4.13173,-0.0866 6.13623,0.38305 1.588276,0.42281 2.752206,1.97519 2.673206,3.62383 0.1243,1.81551 -1.23983,3.55326 -3.039766,3.84136 -2.64147,0.47413 -5.34028,0.3197 -8.010694,0.35214 0,-2.73346 0,-5.46692 0,-8.20038 0.747004,0 1.494014,0 2.241024,0 z" />
    <path
       id="path3"
       d="m 131.18989,113.642 -12.31181,1.34565 c -0.29983,-2.50968 -1.07436,-4.36445 -2.326,-5.56045 -1.25165,-1.19472 -2.87552,-1.79464 -4.87228,-1.79464 -2.6527,0 -4.8962,1.21263 -6.72998,3.63022 -1.8338,2.41887 -2.99053,7.43825 -3.46522,15.05815 3.15298,-3.71722 7.07037,-5.57711 11.75474,-5.57711 5.28148,0 9.80839,2.00444 13.57599,6.00945 3.76748,4.00758 5.65371,9.17918 5.65371,15.5148 0,6.72704 -1.98371,12.12378 -5.95111,16.18891 -3.96728,4.06718 -9.05893,6.09834 -15.27981,6.09834 -6.67358,0 -12.15691,-2.59079 -16.454083,-7.7753 -4.297044,-5.18056 -6.445631,-13.67794 -6.445631,-25.4896 0,-12.10715 2.233522,-20.83606 6.705554,-26.18546 4.47203,-5.349397 10.27809,-8.025373 17.42086,-8.025373 5.01171,0 9.15896,1.414732 12.4442,4.242923 3.28536,2.8282 5.37894,6.93555 6.28087,12.31949 z m -28.62095,27.58611 c 0,4.0805 0.94938,7.22848 2.84803,9.44653 1.89876,2.21804 4.0673,3.32707 6.51074,3.32707 2.35094,0 4.30906,-0.90692 5.87858,-2.72203 1.56644,-1.8164 2.35095,-4.79426 2.35095,-8.93486 0,-4.25701 -0.8445,-7.37429 -2.53335,-9.3557 -1.68887,-1.97884 -3.79742,-2.97146 -6.32834,-2.97146 -2.4433,0 -4.50696,0.94785 -6.19582,2.83587 -1.68885,1.89186 -2.53079,4.68169 -2.53079,8.37458"
       style="fill:#231f20;fill-opacity:1;fill-rule:nonzero;stroke:none;stroke-width:0.127914" />
    <path
       id="path4"
       style="fill:#231f20;fill-opacity:1;fill-rule:nonzero;stroke:none;stroke-width:0.109738"
       d="m 129.89525,244.51177 c -4.18743,0.15183 -8.61869,1.29545 -11.62227,4.38516 -2.88922,2.93779 -4.0775,7.39114 -3.04769,11.37965 0.93031,3.86351 3.93327,7.01953 7.56188,8.52819 4.07399,1.86754 8.59512,2.35943 12.78716,3.86992 0.93653,0.34617 1.99128,1.05469 1.85108,2.19758 -0.0823,1.81206 -1.86812,3.00484 -3.51694,3.28469 -2.23755,0.37843 -4.79194,0.3989 -6.6972,-1.01025 -1.92305,-1.51878 -2.28824,-4.10118 -2.69975,-6.358 -0.33151,-0.24376 -1.08039,0.0701 -1.56973,0.0371 -3.25028,0.31658 -6.50066,0.63212 -9.75088,0.94929 0.34549,3.06103 0.83119,6.18358 2.32125,8.92579 1.76798,3.44722 5.00341,6.05155 8.71453,7.13347 4.00117,1.19616 8.28472,1.21113 12.38616,0.57767 3.76861,-0.60177 7.50586,-2.37262 9.77376,-5.53578 2.08121,-2.79249 2.99129,-6.38018 2.56624,-9.83096 -0.2577,-3.29935 -1.87935,-6.45992 -4.4614,-8.54067 -2.92478,-2.38271 -6.67946,-3.32054 -10.25211,-4.26865 -2.52392,-0.6569 -5.16956,-1.11123 -7.46409,-2.40617 -0.83139,-0.44668 -0.84868,-1.76078 0.0446,-2.14791 1.81445,-1.07646 4.05826,-1.06274 6.08812,-0.78983 1.2922,0.16604 2.53154,0.95162 2.95518,2.22892 0.44577,1.07043 0.55129,2.23769 0.80454,3.36065 3.79418,-0.13443 7.58855,-0.26352 11.38283,-0.39491 -0.0946,-2.53418 -0.25115,-5.14089 -1.35987,-7.46943 -1.58483,-3.55741 -4.87791,-6.19678 -8.6077,-7.22283 -2.65095,-0.77451 -5.43812,-0.96823 -8.18777,-0.88274 z" />
  </g>
</svg>
