<?xml version="1.0" encoding="UTF-8" standalone="no"?>
<svg
   viewBox="0 0 640 512"
   version="1.1"
   id="svg1"
   sodipodi:docname="vegan.svg"
   inkscape:version="1.3.2 (1:1.3.2+202311252150+091e20ef0f)"
   xmlns:inkscape="http://www.inkscape.org/namespaces/inkscape"
   xmlns:sodipodi="http://sodipodi.sourceforge.net/DTD/sodipodi-0.dtd"
   xmlns="http://www.w3.org/2000/svg"
   xmlns:svg="http://www.w3.org/2000/svg">
  <defs
     id="defs1" />
  <sodipodi:namedview
     id="namedview1"
     pagecolor="#ffffff"
     bordercolor="#666666"
     borderopacity="1.0"
     inkscape:showpageshadow="2"
     inkscape:pageopacity="0.0"
     inkscape:pagecheckerboard="0"
     inkscape:deskcolor="#d1d1d1"
     inkscape:zoom="0.27053924"
     inkscape:cx="508.24419"
     inkscape:cy="-314.18732"
     inkscape:window-width="1848"
     inkscape:window-height="1016"
     inkscape:window-x="72"
     inkscape:window-y="27"
     inkscape:window-maximized="1"
     inkscape:current-layer="svg1" />
  <path
     d="m 285.43949,6.0804805 c 0,0 -70.57794,67.7070105 -70.57794,144.7446795 0,77.03766 72.37232,104.07264 72.37232,104.07264 -27.06365,-71.16178 -23.09696,-109.66626 -8.97178,-157.305191 0,90.167561 26.91534,142.950341 26.91534,142.950341 0,0 53.80197,-50.41902 40.67206,-125.0068 -9.39766,-53.514841 -60.41,-109.4556695 -60.41,-109.4556695 z M 444.53903,178.3386 c -124.9063,0 -133.38042,124.40866 -133.38042,124.40866 0,0 35.57609,-36.49001 68.78362,-49.04573 81.72692,-30.89161 141.15599,1.19627 141.15599,1.19627 0,0 -66.93189,-3.58394 -105.26888,11.36422 -73.03745,28.46087 -121.59029,103.63721 -140.55783,133.38045 -5.14861,8.0961 -3.0624,19.02973 4.78493,24.52286 7.67507,5.51225 21.51313,3.02886 26.31722,-6.57932 10.23979,-20.47959 32.74817,-62.95556 38.27959,-69.97986 0,0 41.10269,22.13039 116.03499,22.13039 101.59402,0 175.24872,-114.83874 175.24872,-114.83874 0,0 -82.6839,-76.5592 -191.39793,-76.5592 z"
     id="path1"
     style="stroke-width:19.1398" />
  <path
     d="m 100.8303,220.20885 c 1.56069,3.67448 7.19124,10.55614 12.62447,15.05363 8.57069,7.59798 11.1164,8.45765 23.86151,8.50772 11.66956,-0.45166 14.48415,0.53346 16.1884,4.60209 1.3097,4.2122 0.16307,5.96913 -7.1674,9.75366 -14.14125,7.15659 -26.14787,19.56469 -29.04869,29.9982 -1.89766,8.28235 1.77951,16.54495 30.51133,67.26612 51.59899,90.85011 86.73072,142.59124 101.79041,149.6136 18.01775,8.40189 15.18712,-46.61125 -9.84206,-185.31273 -10.14444,-55.4771 -12.63861,-64.17032 -19.41602,-69.29505 -8.39113,-5.87706 -27.69765,-8.00456 -39.54539,-4.36214 -5.66411,1.61483 -6.86512,1.38226 -8.60554,-4.01288 -1.86577,-5.12616 -0.8445,-6.61425 8.24164,-14.16368 8.96075,-7.28043 10.878,-9.98782 12.7033,-20.92294 3.90122,-22.40823 -8.49034,-38.66327 -22.98965,-30.03681 -6.14755,3.35404 -7.07978,3.24661 -12.72851,-4.29841 -17.34084,-22.49163 -40.31875,-13.23512 -39.27068,15.40975 0.361,8.35332 -0.0152,9.16004 -6.23518,9.86102 -8.33512,1.02422 -14.6233,13.80711 -11.07145,22.33868 z m 47.98853,65.59391 c 11.47303,2.07596 17.84089,16.50434 12.69948,27.53009 -5.5176,11.83261 -14.24708,13.00032 -21.68916,2.9821 -10.75975,-14.83938 -5.0291,-33.44788 8.9897,-30.51223 z"
     id="path11"
     style="stroke-width:0.296722" />
  <path
     d="m 41.55902,275.7614 c -28.18431,7.18706 -43.5677205,37.24571 -34.4764005,67.07452 2.75096,9.25842 7.9265805,17.38678 20.1733505,31.46355 19.58675,22.89639 24.18493,33.48282 26.95419,64.79214 3.16032,34.90975 12.44559,50.70699 35.8635,61.043 15.54959,6.79933 33.18138,5.36001 46.23154,-3.61328 14.3114,-9.87999 18.52528,-17.19964 21.3471,-35.36743 2.95974,-20.71867 -1.71996,-33.90228 -19.77694,-54.83401 -23.08586,-26.91837 -26.47138,-34.90353 -29.80287,-73.3676 -0.7982,-10.25366 -3.44379,-21.83543 -6.61756,-28.1341 C 91.31474,283.91522 63.16923,270.23616 41.55902,275.7614 Z m 22.87304,12.56645 c 2.66945,6.66144 -2.60251,11.88147 -10.51147,10.21255 -5.05281,-1.06624 -6.42804,-2.52912 -6.28204,-6.72005 -0.009,-11.02542 12.56966,-13.53089 16.79351,-3.4925 z m -24.64415,15.67371 c 0.94441,6.06288 -4.85593,16.56599 -9.76227,17.64152 -9.7148,1.46815 -14.97213,-9.25736 -10.35969,-20.94931 4.19744,-10.37217 18.57503,-8.04199 20.12196,3.30779 z m 21.29463,14.10973 c -1.50469,5.78059 -9.11239,6.75521 -11.31785,1.59896 -1.64395,-4.33401 3.02599,-8.50858 8.51843,-7.3497 3.0756,0.64917 3.97899,2.24692 2.79943,5.75083 z"
     id="path78"
     style="stroke-width:0.226994" />
</svg>
