<?xml version="1.0" encoding="UTF-8" standalone="no"?>
<svg
   viewBox="0 0 640 512"
   version="1.1"
   id="svg1"
   sodipodi:docname="vegetarian.svg"
   inkscape:version="1.3.2 (1:1.3.2+202311252150+091e20ef0f)"
   xml:space="preserve"
   xmlns:inkscape="http://www.inkscape.org/namespaces/inkscape"
   xmlns:sodipodi="http://sodipodi.sourceforge.net/DTD/sodipodi-0.dtd"
   xmlns="http://www.w3.org/2000/svg"
   xmlns:svg="http://www.w3.org/2000/svg"><defs
     id="defs1" /><sodipodi:namedview
     id="namedview1"
     pagecolor="#ffffff"
     bordercolor="#666666"
     borderopacity="1.0"
     inkscape:showpageshadow="2"
     inkscape:pageopacity="0.0"
     inkscape:pagecheckerboard="0"
     inkscape:deskcolor="#d1d1d1"
     inkscape:zoom="0.84290377"
     inkscape:cx="528.53009"
     inkscape:cy="71.182503"
     inkscape:window-width="1848"
     inkscape:window-height="1016"
     inkscape:window-x="72"
     inkscape:window-y="27"
     inkscape:window-maximized="1"
     inkscape:current-layer="g1" /><g
     id="g1"
     transform="matrix(0.03807822,0,0,-0.03807822,138.12071,524.28668)"
     style="fill:#000000;stroke:none"><path
       d="m -1943.8288,10867.623 c -141.0409,-150.445 -65.8198,-526.558 122.2361,-573.573 141.0326,-37.642 188.0578,-131.64 188.06,-385.5185 0,-282.0859 -94.0329,-432.5324 -658.2075,-1015.5127 l -658.2006,-677.0147 6e-4,-3140.5709 -9e-4,-3149.9758 216.2662,-197.4603 c 206.8664,-197.4625 300.8926,-206.8645 2031.03135,-206.8662 893.27703,8e-4 1015.28242,1.4908 1015.28242,1.4908 0,0 72.82363,-1.3975 159.15088,-1.7748 l -7.10434,2506.1499 136.00999,189.5536 182.28393,188.6815 264.42897,219.5428 250.0996,176.0681 262.5893,113.0936 3.3595,3302.0715 -658.20753,677.0103 c -554.76849,573.5741 -658.20148,733.4268 -658.20028,1006.109 -0.002,225.6728 56.41478,357.3138 197.45567,441.9398 122.23815,75.225 178.66103,197.456 159.85051,329.098 -28.208,197.461 -75.21963,206.865 -1259.99058,235.074 -667.60329,9.402 -1250.58679,-9.404 -1288.19519,-37.615 z m 686.4103,-2200.2754 c 225.6698,-423.1295 -432.5323,-1053.1285 -789.8428,-752.234 -188.061,150.4461 -188.0608,460.7463 -8e-4,733.4259 188.0594,272.6834 648.7975,282.0874 789.8436,18.8081 z"
       id="path80"
       style="stroke-width:9.4029"
       sodipodi:nodetypes="sccccccccccccccccccccccsscccc" /><path
       d="M 2506.4259,5034.1357 C 1955.8512,4986.8536 1492.4857,4823.9927 1087.9601,4532.9446 953.46848,4436.2788 703.39824,4189.3607 633.00031,4082.1877 L 583.6167,4007.5869 V 2767.743 c 0,-1215.6776 0,-1239.844 21.0143,-1265.0613 10.50715,-14.7099 33.62288,-31.5214 49.38362,-38.8764 43.07932,-16.8115 4132.46348,-609.41513 4166.08628,-603.11077 14.71,3.15213 38.8765,16.81145 52.5358,31.52139 24.1664,25.21734 24.1664,28.36946 27.3186,325.72198 2.1015,254.2732 1.0508,303.6567 -12.6086,323.6203 -9.4565,13.6593 -48.3329,39.9272 -87.2094,58.84 -76.7022,36.7751 -169.1652,116.6295 -210.143,181.7738 -89.3108,139.7451 -93.5137,332.026 -13.6593,496.9883 49.3836,99.818 105.0715,155.5059 219.5995,218.5488 47.2822,25.2172 81.9557,52.5358 91.4122,70.3979 11.5579,23.1157 14.7101,107.173 14.7101,451.8076 l -1.0507,423.4383 -112.4266,90.3615 c -373.004,299.4538 -1398.502,1096.9467 -1794.6217,1396.4006 l -152.3537,115.5787 -117.6801,-1.0508 c -65.1444,-1.0507 -162.8609,-5.2536 -217.4981,-10.5072 z M 1533.4636,3727.046 c 375.1054,-54.6372 684.0156,-100.8687 686.117,-102.9702 1.0508,-2.1014 -14.7099,-37.8257 -36.775,-80.905 -37.8257,-73.5501 -38.8765,-80.9051 -38.8765,-182.8244 0,-95.6151 3.1523,-112.4266 30.4708,-168.1145 38.8765,-79.8543 106.1223,-147.1001 182.8245,-182.8245 52.5357,-25.2171 72.4993,-28.3692 164.9623,-28.3692 128.1872,0 179.6723,22.065 268.9831,110.325 95.615,94.5644 130.2887,218.5488 99.8179,350.939 -9.4564,39.9271 -14.71,74.6007 -11.5578,77.7529 4.2028,5.2535 1703.2094,-242.7153 1768.3537,-257.4253 l 23.1158,-5.2536 v -285.7945 -285.7946 l -67.2458,-44.13 c -281.5917,-184.9259 -378.2575,-573.6905 -222.7517,-889.9559 57.7894,-114.5279 119.7816,-188.0779 216.4474,-252.1716 l 73.5501,-49.3836 v -172.3173 -172.3173 l -23.1158,5.2536 c -13.6592,3.1521 -553.7269,80.905 -1200.9675,173.368 -647.2406,92.463 -1504.6242,215.3966 -1904.9467,273.1859 -400.3228,57.7894 -732.34893,105.0716 -737.6025,105.0716 -6.30429,0 -10.50715,407.6775 -10.50715,1087.4903 V 3837.371 l 29.42002,-5.2535 c 15.76073,-3.1522 335.17833,-50.4343 710.28383,-105.0715 z"
       id="path1"
       style="stroke-width:1.05072" /></g><path
     d="m 188.55041,396.13063 c -3.8409,1.00024 -6.88162,3.48082 -8.68204,7.12167 -1.12027,2.32054 -1.32032,3.08072 -1.32032,5.72134 0,5.28123 2.80067,9.64226 7.60179,11.84277 6.52152,3.0007 14.12329,0.28007 17.28404,-6.16144 1.52036,-3.08072 1.60038,-8.00187 0.16005,-11.16262 -1.12027,-2.52059 -4.12098,-5.44128 -6.76159,-6.60153 -2.00046,-0.92022 -6.28146,-1.28032 -8.28193,-0.76019 z"
     id="path2"
     style="fill:#000000;stroke:none;stroke-width:0.0400094" /><path
     d="m 282.57241,405.33278 c -2.96069,1.40034 -5.40127,4.96117 -5.40127,7.96187 0,4.40103 4.44105,8.88208 8.88209,8.88208 2.04047,0 4.68109,-1.24029 6.28147,-3.00071 2.6006,-2.84066 3.12072,-6.28146 1.44034,-9.68225 -2.1205,-4.20099 -7.12168,-6.04143 -11.20263,-4.16099 z"
     id="path3"
     style="fill:#000000;stroke:none;stroke-width:0.0400094" /><path
     d="m 245.60376,430.81876 c -6.16145,1.64037 -11.44268,6.92162 -13.08307,13.12307 -0.80018,2.92068 -0.68016,6.92162 0.24007,9.8823 1.52034,5.04119 4.68109,8.68205 9.60224,11.08261 2.92068,1.44034 3.04071,1.48034 7.80183,1.48034 4.76111,0 4.88114,-0.04 7.84183,-1.48034 8.0819,-4.00094 12.00281,-12.56295 9.76228,-21.32499 -2.44057,-9.44222 -12.64296,-15.3236 -22.16518,-12.76299 z"
     id="path4"
     style="fill:#000000;stroke:none;stroke-width:0.0400094" /><path
     d="m 202.75372,432.61918 c -3.60084,0.68016 -7.44173,4.12096 -8.40196,7.48175 -1.44034,5.20121 0.88021,10.44244 5.64132,12.843 9.04212,4.52106 18.72437,-4.64108 14.76346,-13.88325 -1.96046,-4.56107 -7.16169,-7.32171 -12.00282,-6.4415 z"
     id="path5"
     style="fill:#000000;stroke:none;stroke-width:0.0400094" /><path
     d="m 282.17232,449.50313 c -5.76134,3.28077 -5.32124,11.5627 0.80019,14.32336 2.24052,1.04024 4.08095,0.92021 6.56152,-0.28008 7.56179,-3.80089 4.84114,-14.9635 -3.64084,-14.9635 -1.44034,0 -2.64063,0.28007 -3.72087,0.92022 z"
     id="path6"
     style="fill:#000000;stroke:none;stroke-width:0.0400094" /><g
     id="g2"
     transform="translate(28.867629,65.819606)"><path
       d="m 430.33429,257.29138 c -16.26667,6 -30.13333,28.93334 -34.26667,56.8 -3.2,22.13334 1.73334,39.46667 14.4,50.66667 10.13334,8.93333 24.86613,13.00273 38.59946,8.33607 -6.59172,-4.31572 -10.12569,-30.4056 -7.53243,-40.2003 1.34667,-9.67057 3.36303,-22.49672 12.09735,-38.98501 4.2338,-6.99963 5.86808,-9.01573 10.09273,-13.63375 -9.06667,-27.33334 -16.99044,-28.85034 -33.39044,-22.98368 z m 2.4,14.93334 c 2.4,2.26666 2.8,8.8 0.8,12.4 -0.66667,1.33333 -3.06667,3.2 -5.33333,4.13333 -3.6,1.46667 -4.4,1.33333 -6.66667,-0.66667 -4.8,-4.26666 -3.06667,-12.66666 3.33333,-16.4 3.6,-2.13333 5.46667,-2 7.86667,0.53334 z"
       id="path82"
       style="stroke-width:0.133333"
       sodipodi:nodetypes="cccccccccccccc" /><path
       d="m 479.0028,274.02355 c -16.26667,6 -30.13333,28.93334 -34.26667,56.8 -3.2,22.13334 1.73334,39.46667 14.4,50.66667 10.13334,8.93333 27.06667,11.86666 40.8,7.2 8.53334,-2.93334 18.66667,-12.26667 23.2,-21.6 3.6,-7.2 3.73333,-8.4 3.6,-26.26667 0,-16.53333 -0.53333,-19.86666 -3.6,-29.46666 -9.06667,-27.33334 -27.73333,-43.2 -44.13333,-37.33334 z m 2.4,14.93334 c 2.4,2.26666 2.8,8.8 0.8,12.4 -0.66667,1.33333 -3.06667,3.2 -5.33333,4.13333 -3.6,1.46667 -4.4,1.33333 -6.66667,-0.66667 -4.8,-4.26666 -3.06667,-12.66666 3.33333,-16.4 3.6,-2.13333 5.46667,-2 7.86667,0.53334 z"
       id="path82-0"
       style="stroke-width:0.133333" /></g><g
     id="g2-6"
     transform="matrix(5.878266,2.1395139,-2.1395139,5.878266,313.69168,0.27039374)">
	<path
   d="m 10.553,27.865 c 0,-1.647 0.488,-3.231 1.395,-4.572 -0.298,-0.962 -0.452,-1.97 -0.452,-2.969 0,-4.308 2.715,-8.061 6.651,-9.47 C 18.498,7.642 20.558,4.878 23.461,3.555 21.969,1.14 19.614,-0.276 17.443,0.076 15.874,0.331 14.574,1.397 13.81,3.006 12.435,2.374 11.005,2.269 9.751,2.71 8.394,3.188 7.34,4.21 6.703,5.665 5.858,7.592 5.857,10.072 6.674,12.43 5.573,13.186 4.75,14.297 4.269,15.69 c -0.809,2.339 -0.539,5.161 0.74,7.746 0.14,0.282 0.293,0.562 0.46,0.837 -1.201,0.781 -2.1,1.939 -2.582,3.352 -0.766,2.242 -0.427,4.884 0.93,7.246 0.623,1.085 1.448,2.068 2.409,2.876 -0.321,1.344 -0.078,2.821 0.704,4.158 1.093,1.865 3.062,3.13 5.166,3.343 2.818,5.296 6.224,7.998 11.095,10.339 -5.787,-6.841 -9.005,-12.507 -9.186,-21.051 -2.13,-1.521 -3.452,-4.02 -3.452,-6.671 z"
   id="path1-1" />
	<path
   d="M 55.083,20.053 C 55.163,16.159 52.876,12.656 49.332,11.142 48.815,7.819 46.137,5.222 42.809,4.782 42.779,4.451 42.716,4.121 42.621,3.795 42.034,1.791 40.267,0.282 38.226,0.04 36.891,-0.119 35.629,0.216 34.586,0.949 33.656,0.334 32.573,0.002 31.463,0.002 c -2.859,0 -5.235,2.112 -5.649,4.858 -3.269,0.66 -5.72,3.573 -5.72,6.981 0,0.183 0.008,0.366 0.022,0.552 -3.79,0.682 -6.62,3.975 -6.62,7.932 0,1.144 0.247,2.278 0.721,3.321 -1.065,1.139 -1.663,2.638 -1.663,4.22 0,2.364 1.358,4.508 3.445,5.54 -0.092,9.063 3.209,14.565 9.649,21.979 l 0.363,0.413 0.066,0.075 c 0.976,1.095 2.381,1.697 3.958,1.697 0.273,0 0.542,-0.023 0.807,-0.057 L 30.5,56.849 C 28.351,51.738 27.032,47.2 26.296,43.166 23.523,42.312 22.324,40.096 22.271,39.994 22.013,39.506 22.202,38.9 22.69,38.643 c 0.485,-0.257 1.088,-0.071 1.349,0.414 0.037,0.069 0.619,1.093 1.892,1.791 -0.348,-2.617 -0.449,-5.007 -0.348,-7.161 -0.012,-0.109 -0.007,-0.216 0.018,-0.326 0.174,-3.079 0.736,-5.685 1.478,-7.869 -3.369,-2.009 -3.785,-5.749 -3.495,-7.564 0.087,-0.545 0.601,-0.922 1.145,-0.83 0.545,0.087 0.916,0.598 0.831,1.142 -0.025,0.161 -0.474,3.478 2.254,5.344 0.136,-0.315 0.273,-0.628 0.415,-0.921 2.63,-5.428 6.389,-8.129 7.844,-9.02 C 36.07,11.64 37.383,9.9 37.445,9.819 37.78,9.38 38.41,9.298 38.846,9.632 c 0.438,0.335 0.522,0.962 0.188,1.4 -0.223,0.296 -0.661,1.033 -0.857,1.844 2.303,-0.261 4.551,1.039 4.665,1.107 0.477,0.281 0.634,0.894 0.354,1.369 -0.187,0.316 -0.521,0.492 -0.862,0.492 -0.173,0 -0.347,-0.044 -0.506,-0.138 -0.697,-0.407 -2.819,-1.306 -4.273,-0.61 -0.253,0.129 -1.955,1.045 -3.892,3.066 3.967,-0.289 6.726,0.889 6.865,0.949 0.505,0.223 0.735,0.813 0.514,1.318 -0.165,0.374 -0.532,0.598 -0.917,0.598 -0.133,0 -0.269,-0.026 -0.399,-0.084 -0.075,-0.032 -3.458,-1.434 -7.942,-0.501 -0.898,1.263 -1.762,2.777 -2.478,4.581 -0.002,0.132 -0.029,0.266 -0.087,0.394 -0.038,0.085 -0.089,0.159 -0.145,0.227 -0.569,1.559 -1.028,3.312 -1.304,5.292 2.261,-1.418 5.113,-1.48 5.276,-1.482 0.004,0 0.008,0 0.012,0 0.546,0 0.991,0.438 0.999,0.986 0.008,0.552 -0.434,1.005 -0.985,1.014 -0.042,10e-4 -4.157,0.097 -5.557,2.484 -0.098,2.439 0.071,5.162 0.591,8.192 0.005,0.023 0.008,0.046 0.011,0.07 0.7,4.039 2.016,8.61 4.197,13.799 l 0.476,0.918 c 0.734,-0.37 1.366,-0.882 1.817,-1.512 0.753,-1.052 0.931,-2.328 0.499,-3.593 -1.808,-5.305 -1.752,-9.353 0.166,-12.033 2.486,-3.475 7.664,-3.994 10.528,-3.994 1.475,0 2.488,0.136 2.498,0.138 l 1.028,0.14 0.103,-1.032 c 0.014,-0.136 0.309,-3.358 -1.571,-5.547 -0.109,-0.127 -0.224,-0.247 -0.342,-0.362 0.531,-0.119 1.056,-0.288 1.572,-0.506 3.564,-1.503 5.918,-4.865 5.995,-8.563 z"
   id="path2-5" />
</g><g
     id="g3"
     transform="matrix(4.8796321,1.7760408,-1.7760408,4.8796321,271.58799,15.11521)">
</g><g
     id="g4"
     transform="matrix(4.8796321,1.7760408,-1.7760408,4.8796321,271.58799,15.11521)">
</g><g
     id="g5"
     transform="matrix(4.8796321,1.7760408,-1.7760408,4.8796321,271.58799,15.11521)">
</g><g
     id="g6"
     transform="matrix(4.8796321,1.7760408,-1.7760408,4.8796321,271.58799,15.11521)">
</g><g
     id="g7"
     transform="matrix(4.8796321,1.7760408,-1.7760408,4.8796321,271.58799,15.11521)">
</g><g
     id="g8"
     transform="matrix(4.8796321,1.7760408,-1.7760408,4.8796321,271.58799,15.11521)">
</g><g
     id="g9"
     transform="matrix(4.8796321,1.7760408,-1.7760408,4.8796321,271.58799,15.11521)">
</g><g
     id="g10"
     transform="matrix(4.8796321,1.7760408,-1.7760408,4.8796321,271.58799,15.11521)">
</g><g
     id="g11"
     transform="matrix(4.8796321,1.7760408,-1.7760408,4.8796321,271.58799,15.11521)">
</g><g
     id="g12"
     transform="matrix(4.8796321,1.7760408,-1.7760408,4.8796321,271.58799,15.11521)">
</g><g
     id="g13"
     transform="matrix(4.8796321,1.7760408,-1.7760408,4.8796321,271.58799,15.11521)">
</g><g
     id="g14"
     transform="matrix(4.8796321,1.7760408,-1.7760408,4.8796321,271.58799,15.11521)">
</g><g
     id="g15"
     transform="matrix(4.8796321,1.7760408,-1.7760408,4.8796321,271.58799,15.11521)">
</g><g
     id="g16"
     transform="matrix(4.8796321,1.7760408,-1.7760408,4.8796321,271.58799,15.11521)">
</g><g
     id="g17"
     transform="matrix(4.8796321,1.7760408,-1.7760408,4.8796321,271.58799,15.11521)">
</g></svg>
