batiment;surface;année;occupation;electricité;autoproduction;eau;chauffage electrique;identifiant réseau de chaleur;consommation réseau de chaleur;gaz naturel;propane;fioul;biométhane;granulés;plaquettes;buches;propriétaire
B1;4500;2000;50;100000;;1000;;;;50000;;1000;;;400;;gaz,fioul
B2;2000;2001;80;350000;200;3000;;3107c;200000;;;;;;;;
B3;8000;1998;100;900000;;5000;;;;1200000;;;;2000;;;
B4;250;1980;70;150000;;1200;;;;52500;;;;;;20;
B5;952;2021;70;56200;;1500;;;;;;;;;;30000;
B6;445;1970;;123000;;450;oui;;;;;;;;;;
B7;534;2014;34;545000;;540;;;;;;;160200;;;;
B8;1000;2008;34;325130;;900;;;;;350000;;;;;;
B9;700;1999;100;700000;;4500;;;;;301000;;;;;;