{
  "glass.europe.manufacturing": {
    "description_FR": "Fabrication verre europe",
    "description_EN": "Glass europe manufacturing",
    "unit": "kg",
    "group": "glass.europe.manufacturing",
    "decomposition": {
      "2023": {
        "water": 0.523,
        "carbon": 2.208
      }
    }
  },
  "glass.europe.eol": {
    "description_FR": "Fin de vie verre europe",
    "description_EN": "Glass europe end of life",
    "unit": "kg",
    "group": "glass.europe.eol",
    "decomposition": {
      "2023": {
        "water": 0.003,
        "carbon": 0.017
      }
    }
  },
  "glass.row.manufacturing": {
    "description_FR": "Fabrication verre hors europe",
    "description_EN": "Glass outside europe manufacturing",
    "unit": "kg",
    "group": "glass.row.manufacturing",
    "decomposition": {
      "2023": {
        "water": 0.615,
        "carbon": 2.504
      }
    }
  },
  "glass.row.eol": {
    "description_FR": "Fin de vie verre hors europe",
    "description_EN": "Glass outside europe end of life",
    "unit": "kg",
    "group": "glass.row.eol",
    "decomposition": {
      "2023": {
        "water": 0.003,
        "carbon": 0.017
      }
    }
  },
  "polystyrene.europe.manufacturing": {
    "description_FR": "Fabrication polystyrène europe",
    "description_EN": "Polystyrene europe manufacturing",
    "unit": "kg",
    "group": "polystyrene.europe.manufacturing",
    "decomposition": {
      "2023": {
        "water": 2.27,
        "carbon": 3.654
      }
    }
  },
  "polystyrene.europe.eol": {
    "description_FR": "Fin de vie polystyrène europe",
    "description_EN": "Polystyrene europe end of life",
    "unit": "kg",
    "group": "polystyrene.europe.eol",
    "decomposition": {
      "2023": {
        "water": 0.049,
        "carbon": 3.191
      }
    }
  },
  "polystyrene.row.manufacturing": {
    "description_FR": "Fabrication polystyrène hors europe",
    "description_EN": "Polystyrene outside europe manufacturing",
    "unit": "kg",
    "group": "polystyrene.row.manufacturing",
    "decomposition": {
      "2023": {
        "water": 2.269,
        "carbon": 3.664
      }
    }
  },
  "polystyrene.row.eol": {
    "description_FR": "Fin de vie polystyrène hors europe",
    "description_EN": "Polystyrene outside europe end of life",
    "unit": "kg",
    "group": "polystyrene.row.eol",
    "decomposition": {
      "2023": {
        "water": 0.049,
        "carbon": 3.191
      }
    }
  },
  "polycarbonate.europe.manufacturing": {
    "description_FR": "Fabrication polycarbonate europe",
    "description_EN": "Polycarbonate europe manufacturing",
    "unit": "kg",
    "group": "polycarbonate.europe.manufacturing",
    "decomposition": {
      "2023": {
        "water": 1.464,
        "carbon": 6.171
      }
    }
  },
  "polycarbonate.europe.eol": {
    "description_FR": "Fin de vie polycarbonate europe",
    "description_EN": "Polycarbonate europe end of life",
    "unit": "kg",
    "group": "polycarbonate.europe.eol",
    "decomposition": {
      "2023": {
        "water": 0.067,
        "carbon": 2.613
      }
    }
  },
  "polycarbonate.row.manufacturing": {
    "description_FR": "Fabrication polycarbonate hors europe",
    "description_EN": "Polycarbonate outside europe manufacturing",
    "unit": "kg",
    "group": "polycarbonate.row.manufacturing",
    "decomposition": {
      "2023": {
        "water": 1.592,
        "carbon": 6.9
      }
    }
  },
  "polycarbonate.row.eol": {
    "description_FR": "Fin de vie polycarbonate hors europe",
    "description_EN": "Polycarbonate outside europe end of life",
    "unit": "kg",
    "group": "polycarbonate.row.eol",
    "decomposition": {
      "2023": {
        "water": 0.067,
        "carbon": 2.613
      }
    }
  },
  "polypropene.europe.manufacturing": {
    "description_FR": "Fabrication polycarbonate europe",
    "description_EN": "Polypropene europe manufacturing",
    "unit": "kg",
    "group": "polypropene.europe.manufacturing",
    "decomposition": {
      "2023": {
        "water": 0.519,
        "carbon": 2.366
      }
    }
  },
  "polypropene.europe.eol": {
    "description_FR": "Fin de vie polycarbonate europe",
    "description_EN": "Polypropene europe end of life",
    "unit": "kg",
    "group": "polypropene.europe.eol",
    "decomposition": {
      "2023": {
        "water": 0.067,
        "carbon": 2.613
      }
    }
  },
  "polypropene.row.manufacturing": {
    "description_FR": "Fabrication polypropène hors europe",
    "description_EN": "Polypropene outside europe manufacturing",
    "unit": "kg",
    "group": "polypropene.row.manufacturing",
    "decomposition": {
      "2023": {
        "water": 0.916,
        "carbon": 3.679
      }
    }
  },
  "polypropene.row.eol": {
    "description_FR": "Fin de vie polypropène hors europe",
    "description_EN": "Polypropene outside europe end of life",
    "unit": "kg",
    "group": "polypropene.row.eol",
    "decomposition": {
      "2023": {
        "water": 0.067,
        "carbon": 2.613
      }
    }
  },
  "moulding.europe": {
    "description_FR": "",
    "description_EN": "",
    "unit": "kg",
    "group": "moulding.europe",
    "decomposition": {
      "2023": {
        "water": 0.549,
        "carbon": 0.887
      }
    }
  },
  "moulding.row": {
    "description_FR": "",
    "description_EN": "",
    "unit": "kg",
    "group": "moulding.row",
    "decomposition": {
      "2023": {
        "water": 0.456,
        "carbon": 1.518
      }
    }
  },
  "sterilisation": {
    "description_FR": "",
    "description_EN": "",
    "unit": "kg",
    "group": "sterilisation",
    "decomposition": {
      "2023": {
        "water": 3.0,
        "carbon": 3.0
      }
    }
  },
  "road.transport.small": {
    "description_FR": "",
    "description_EN": "",
    "unit": "km",
    "group": "road.transport.small",
    "decomposition": {
      "2023": {
        "water": 0.04,
        "carbon": 0.592
      }
    }
  },
  "road.transport.big": {
    "description_FR": "",
    "description_EN": "",
    "unit": "km",
    "group": "road.transport.big",
    "decomposition": {
      "2023": {
        "water": 0.012,
        "carbon": 0.192
      }
    }
  },
  "sea.transport": {
    "description_FR": "",
    "description_EN": "",
    "unit": "km",
    "group": "sea.transport",
    "decomposition": {
      "2023": {
        "water": 0.0,
        "carbon": 0.01
      }
    }
  },
  "trajet.preparateur": {
    "description_FR": "",
    "description_EN": "",
    "unit": "kg",
    "group": "trajet.preparateur",
    "decomposition": {
      "2023": {
        "water": 0.037,
        "carbon": 0.369
      }
    }
  },
  "lab.washer": {
    "description_FR": "LabWasher",
    "description_EN": "LabWasher",
    "unit": "unit",
    "group": "lab.washer",
    "decomposition": {
      "2023": {
        "water": 343,
        "carbon": 774
      }
    }
  },
  "potable.water": {
    "description_FR": "",
    "description_EN": "",
    "unit": "l",
    "group": "potable.water",
    "decomposition": {
      "2023": {
        "water": 0.0001,
        "carbon": 0.0003
      }
    }
  },
  "deionised.water": {
    "description_FR": "",
    "description_EN": "",
    "unit": "l",
    "group": "deionised.water",
    "decomposition": {
      "2023": {
        "water": 0.0009,
        "carbon": 0.0004
      }
    }
  },
  "detergent": {
    "description_FR": "",
    "description_EN": "",
    "unit": "l",
    "group": "detergent",
    "decomposition": {
      "2023": {
        "water": 5.382,
        "carbon": 2.36
      }
    }
  },
  "tdf4": {
    "description_FR": "",
    "description_EN": "",
    "unit": "l",
    "group": "detergent",
    "decomposition": {
      "2023": {
        "water": 0.71,
        "carbon": 3.10
      }
    }
  },
  "gaz": {
    "description_FR": "",
    "description_EN": "",
    "unit": "",
    "group": "gaz",
    "decomposition": {
      "2023": {
        "water": 0.003,
        "carbon": 0.24
      }
    }
  },
  "electricity.al": {
    "description_FR": "Albanie",
    "description_EN": "Albania",
    "unit": "",
    "group": "electricity.al",
    "decomposition": {
      "2023": {
        "water": 0.02,
        "carbon": 0.003
      }
    }
  },
  "electricity.dz": {
    "description_FR": "Algérie",
    "description_EN": "Algeria",
    "unit": "",
    "group": "electricity.dz",
    "decomposition": {
      "2023": {
        "water": 0.063,
        "carbon": 0.63
      }
    }
  },
  "electricity.ao": {
    "description_FR": "Angola",
    "description_EN": "Angola",
    "unit": "",
    "group": "electricity.ao",
    "decomposition": {
      "2023": {
        "water": 0.021,
        "carbon": 0.506
      }
    }
  },
  "electricity.ar": {
    "description_FR": "Argentine",
    "description_EN": "Argentina",
    "unit": "",
    "group": "electricity.ar",
    "decomposition": {
      "2023": {
        "water": 0.526,
        "carbon": 0.346
      }
    }
  },
  "electricity.am": {
    "description_FR": "Arménie",
    "description_EN": "Armenia",
    "unit": "",
    "group": "electricity.am",
    "decomposition": {
      "2023": {
        "water": 0.079,
        "carbon": 0.217
      }
    }
  },
  "electricity.au": {
    "description_FR": "Australie",
    "description_EN": "Australia",
    "unit": "",
    "group": "electricity.au",
    "decomposition": {
      "2023": {
        "water": 0.085,
        "carbon": 0.748
      }
    }
  },
  "electricity.at": {
    "description_FR": "Autriche",
    "description_EN": "Austria",
    "unit": "",
    "group": "electricity.at",
    "decomposition": {
      "2023": {
        "water": 0.225,
        "carbon": 0.142
      }
    }
  },
  "electricity.az": {
    "description_FR": "Azerbaïdjan",
    "description_EN": "Azerbaijan",
    "unit": "",
    "group": "electricity.az",
    "decomposition": {
      "2023": {
        "water": 0.056,
        "carbon": 0.672
      }
    }
  },
  "electricity.bh": {
    "description_FR": "Bahreïn",
    "description_EN": "Bahrain",
    "unit": "",
    "group": "electricity.bh",
    "decomposition": {
      "2023": {
        "water": 0.05,
        "carbon": 0.704
      }
    }
  },
  "electricity.bd": {
    "description_FR": "Bangladesh",
    "description_EN": "Bangladesh",
    "unit": "",
    "group": "electricity.bd",
    "decomposition": {
      "2023": {
        "water": 0.081,
        "carbon": 0.682
      }
    }
  },
  "electricity.by": {
    "description_FR": "Biélorussie",
    "description_EN": "Belarus",
    "unit": "",
    "group": "electricity.by",
    "decomposition": {
      "2023": {
        "water": 0.082,
        "carbon": 0.673
      }
    }
  },
  "electricity.be": {
    "description_FR": "Belgique",
    "description_EN": "Belgium",
    "unit": "",
    "group": "electricity.be",
    "decomposition": {
      "2023": {
        "water": 0.095,
        "carbon": 0.147
      }
    }
  },
  "electricity.bj": {
    "description_FR": "Bénin",
    "description_EN": "Benin",
    "unit": "",
    "group": "electricity.bj",
    "decomposition": {
      "2023": {
        "water": 0.066,
        "carbon": 0.792
      }
    }
  },
  "electricity.bo": {
    "description_FR": "Bolivie",
    "description_EN": "Bolivia",
    "unit": "",
    "group": "electricity.bo",
    "decomposition": {
      "2023": {
        "water": 0.047,
        "carbon": 0.486
      }
    }
  },
  "electricity.ba": {
    "description_FR": "Bosnie-Herzégovine",
    "description_EN": "Bosnia and Herzegovina",
    "unit": "",
    "group": "electricity.ba",
    "decomposition": {
      "2023": {
        "water": 0.268,
        "carbon": 0.642
      }
    }
  },
  "electricity.bw": {
    "description_FR": "Botswana",
    "description_EN": "Botswana",
    "unit": "",
    "group": "electricity.bw",
    "decomposition": {
      "2023": {
        "water": 0.144,
        "carbon": 2.769
      }
    }
  },
  "electricity.br": {
    "description_FR": "Brésil",
    "description_EN": "Brazil",
    "unit": "",
    "group": "electricity.br",
    "decomposition": {
      "2023": {
        "water": 0.916,
        "carbon": 0.155
      }
    }
  },
  "electricity.vn": {
    "description_FR": "Vietnam",
    "description_EN": "Viet Nam",
    "unit": "",
    "group": "electricity.vn",
    "decomposition": {
      "2023": {
        "water": 0.058,
        "carbon": 0.497
      }
    }
  },
  "electricity.bg": {
    "description_FR": "Bulgarie",
    "description_EN": "Bulgaria",
    "unit": "",
    "group": "electricity.bg",
    "decomposition": {
      "2023": {
        "water": 0.159,
        "carbon": 0.465
      }
    }
  },
  "electricity.kh": {
    "description_FR": "Cambodge",
    "description_EN": "Cambodia",
    "unit": "",
    "group": "electricity.kh",
    "decomposition": {
      "2023": {
        "water": 0.066,
        "carbon": 0.884
      }
    }
  },
  "electricity.cm": {
    "description_FR": "Cameroun",
    "description_EN": "Cameroon",
    "unit": "",
    "group": "electricity.cm",
    "decomposition": {
      "2023": {
        "water": 0.01,
        "carbon": 0.248
      }
    }
  },
  "electricity.ca": {
    "description_FR": "Canada",
    "description_EN": "Canada",
    "unit": "",
    "group": "electricity.ca",
    "decomposition": {
      "2023": {
        "water": 0.905,
        "carbon": 0.133
      }
    }
  },
  "electricity.cl": {
    "description_FR": "Chili",
    "description_EN": "Chile",
    "unit": "",
    "group": "electricity.cl",
    "decomposition": {
      "2023": {
        "water": 0.057,
        "carbon": 0.472
      }
    }
  },
  "electricity.cn": {
    "description_FR": "Chine",
    "description_EN": "China",
    "unit": "",
    "group": "electricity.cn",
    "decomposition": {
      "2023": {
        "water": 0.115,
        "carbon": 0.641
      }
    }
  },
  "electricity.co": {
    "description_FR": "Colombie",
    "description_EN": "Colombia",
    "unit": "",
    "group": "electricity.co",
    "decomposition": {
      "2023": {
        "water": 0.149,
        "carbon": 0.211
      }
    }
  },
  "electricity.cr": {
    "description_FR": "Costa Rica",
    "description_EN": "Costa Rica",
    "unit": "",
    "group": "electricity.cr",
    "decomposition": {
      "2023": {
        "water": 0.012,
        "carbon": 0.073
      }
    }
  },
  "electricity.hr": {
    "description_FR": "Croatie",
    "description_EN": "Croatia",
    "unit": "",
    "group": "electricity.hr",
    "decomposition": {
      "2023": {
        "water": 0.459,
        "carbon": 0.241
      }
    }
  },
  "electricity.cu": {
    "description_FR": "Cuba",
    "description_EN": "Cuba",
    "unit": "",
    "group": "electricity.cu",
    "decomposition": {
      "2023": {
        "water": 0.078,
        "carbon": 1.113
      }
    }
  },
  "electricity.cy": {
    "description_FR": "Chypre",
    "description_EN": "Cyprus",
    "unit": "",
    "group": "electricity.cy",
    "decomposition": {
      "2023": {
        "water": 0.071,
        "carbon": 0.685
      }
    }
  },
  "electricity.cz": {
    "description_FR": "Tchéquie",
    "description_EN": "Czechia",
    "unit": "",
    "group": "electricity.cz",
    "decomposition": {
      "2023": {
        "water": 0.21,
        "carbon": 0.583
      }
    }
  },
  "electricity.dk": {
    "description_FR": "Danemark",
    "description_EN": "Denmark",
    "unit": "",
    "group": "electricity.dk",
    "decomposition": {
      "2023": {
        "water": 0.279,
        "carbon": 0.218
      }
    }
  },
  "electricity.do": {
    "description_FR": "République dominicaine",
    "description_EN": "Dominican Republic",
    "unit": "",
    "group": "electricity.do",
    "decomposition": {
      "2023": {
        "water": 0.069,
        "carbon": 0.831
      }
    }
  },
  "electricity.ec": {
    "description_FR": "Équateur",
    "description_EN": "Ecuador",
    "unit": "",
    "group": "electricity.ec",
    "decomposition": {
      "2023": {
        "water": 0.013,
        "carbon": 0.467
      }
    }
  },
  "electricity.eg": {
    "description_FR": "Égypte",
    "description_EN": "Egypt",
    "unit": "",
    "group": "electricity.eg",
    "decomposition": {
      "2023": {
        "water": 0.061,
        "carbon": 0.518
      }
    }
  },
  "electricity.sv": {
    "description_FR": "Salvador",
    "description_EN": "El Salvador",
    "unit": "",
    "group": "electricity.sv",
    "decomposition": {
      "2023": {
        "water": 0.049,
        "carbon": 0.268
      }
    }
  },
  "electricity.er": {
    "description_FR": "Érythrée",
    "description_EN": "Eritrea",
    "unit": "",
    "group": "electricity.er",
    "decomposition": {
      "2023": {
        "water": 0.077,
        "carbon": 0.711
      }
    }
  },
  "electricity.ee": {
    "description_FR": "Estonie",
    "description_EN": "Estonia",
    "unit": "",
    "group": "electricity.ee",
    "decomposition": {
      "2023": {
        "water": 0.129,
        "carbon": 0.678
      }
    }
  },
  "electricity.et": {
    "description_FR": "Éthiopie",
    "description_EN": "Ethiopia",
    "unit": "",
    "group": "electricity.et",
    "decomposition": {
      "2023": {
        "water": 0.009,
        "carbon": 0.009
      }
    }
  },
  "electricity.fi": {
    "description_FR": "Finlande",
    "description_EN": "Finland",
    "unit": "",
    "group": "electricity.fi",
    "decomposition": {
      "2023": {
        "water": 0.185,
        "carbon": 0.12
      }
    }
  },
  "electricity.fr": {
    "description_FR": "France",
    "description_EN": "France",
    "unit": "",
    "group": "electricity.fr",
    "decomposition": {
      "2023": {
        "water": 0.143,
        "carbon": 0.052
      }
    }
  },
  "electricity.ga": {
    "description_FR": "Gabon",
    "description_EN": "Gabon",
    "unit": "",
    "group": "electricity.ga",
    "decomposition": {
      "2023": {
        "water": 0.034,
        "carbon": 0.46
      }
    }
  },
  "electricity.ge": {
    "description_FR": "Géorgie",
    "description_EN": "Georgia",
    "unit": "",
    "group": "electricity.ge",
    "decomposition": {
      "2023": {
        "water": 0.026,
        "carbon": 0.092
      }
    }
  },
  "electricity.de": {
    "description_FR": "Allemagne",
    "description_EN": "Germany",
    "unit": "",
    "group": "electricity.de",
    "decomposition": {
      "2023": {
        "water": 0.101,
        "carbon": 0.453
      }
    }
  },
  "electricity.gh": {
    "description_FR": "Ghana",
    "description_EN": "Ghana",
    "unit": "",
    "group": "electricity.gh",
    "decomposition": {
      "2023": {
        "water": 0.04,
        "carbon": 0.311
      }
    }
  },
  "electricity.gi": {
    "description_FR": "Gibraltar",
    "description_EN": "Gibraltar",
    "unit": "",
    "group": "electricity.gi",
    "decomposition": {
      "2023": {
        "water": 0.057,
        "carbon": 0.838
      }
    }
  },
  "electricity.gr": {
    "description_FR": "Grèce",
    "description_EN": "Greece",
    "unit": "",
    "group": "electricity.gr",
    "decomposition": {
      "2023": {
        "water": 0.157,
        "carbon": 0.404
      }
    }
  },
  "electricity.gt": {
    "description_FR": "Guatemala",
    "description_EN": "Guatemala",
    "unit": "",
    "group": "electricity.gt",
    "decomposition": {
      "2023": {
        "water": 0.046,
        "carbon": 0.343
      }
    }
  },
  "electricity.ht": {
    "description_FR": "Haïti",
    "description_EN": "Haiti",
    "unit": "",
    "group": "electricity.ht",
    "decomposition": {
      "2023": {
        "water": 0.107,
        "carbon": 0.619
      }
    }
  },
  "electricity.hn": {
    "description_FR": "Honduras",
    "description_EN": "Honduras",
    "unit": "",
    "group": "electricity.hn",
    "decomposition": {
      "2023": {
        "water": 0.081,
        "carbon": 0.398
      }
    }
  },
  "electricity.hu": {
    "description_FR": "Hongrie",
    "description_EN": "Hungary",
    "unit": "",
    "group": "electricity.hu",
    "decomposition": {
      "2023": {
        "water": 0.201,
        "carbon": 0.269
      }
    }
  },
  "electricity.is": {
    "description_FR": "Islande",
    "description_EN": "Iceland",
    "unit": "",
    "group": "electricity.is",
    "decomposition": {
      "2023": {
        "water": 0.946,
        "carbon": 0.01
      }
    }
  },
  "electricity.in": {
    "description_FR": "Inde",
    "description_EN": "India",
    "unit": "",
    "group": "electricity.in",
    "decomposition": {
      "2023": {
        "water": 0.267,
        "carbon": 0.785
      }
    }
  },
  "electricity.id": {
    "description_FR": "Indonésie",
    "description_EN": "Indonesia",
    "unit": "",
    "group": "electricity.id",
    "decomposition": {
      "2023": {
        "water": 0.208,
        "carbon": 0.863
      }
    }
  },
  "electricity.iq": {
    "description_FR": "Irak",
    "description_EN": "Iraq",
    "unit": "",
    "group": "electricity.iq",
    "decomposition": {
      "2023": {
        "water": 0.106,
        "carbon": 1.103
      }
    }
  },
  "electricity.ie": {
    "description_FR": "Irlande",
    "description_EN": "Ireland",
    "unit": "",
    "group": "electricity.ie",
    "decomposition": {
      "2023": {
        "water": 0.034,
        "carbon": 0.453
      }
    }
  },
  "electricity.il": {
    "description_FR": "Israël",
    "description_EN": "Israel",
    "unit": "",
    "group": "electricity.il",
    "decomposition": {
      "2023": {
        "water": 0.067,
        "carbon": 0.758
      }
    }
  },
  "electricity.it": {
    "description_FR": "Italie",
    "description_EN": "Italy",
    "unit": "",
    "group": "electricity.it",
    "decomposition": {
      "2023": {
        "water": 0.217,
        "carbon": 0.368
      }
    }
  },
  "electricity.jm": {
    "description_FR": "Jamaïque",
    "description_EN": "Jamaica",
    "unit": "",
    "group": "electricity.jm",
    "decomposition": {
      "2023": {
        "water": 0.069,
        "carbon": 0.782
      }
    }
  },
  "electricity.jp": {
    "description_FR": "Japon",
    "description_EN": "Japan",
    "unit": "",
    "group": "electricity.jp",
    "decomposition": {
      "2023": {
        "water": 0.09,
        "carbon": 0.531
      }
    }
  },
  "electricity.jo": {
    "description_FR": "Jordanie",
    "description_EN": "Jordan",
    "unit": "",
    "group": "electricity.jo",
    "decomposition": {
      "2023": {
        "water": 0.069,
        "carbon": 0.651
      }
    }
  },
  "electricity.kz": {
    "description_FR": "Kazakhstan",
    "description_EN": "Kazakhstan",
    "unit": "",
    "group": "electricity.kz",
    "decomposition": {
      "2023": {
        "water": 0.053,
        "carbon": 0.843
      }
    }
  },
  "electricity.ke": {
    "description_FR": "Kenya",
    "description_EN": "Kenya",
    "unit": "",
    "group": "electricity.ke",
    "decomposition": {
      "2023": {
        "water": 0.031,
        "carbon": 0.329
      }
    }
  },
  "electricity.xk": {
    "description_FR": "Kosovo",
    "description_EN": "Kosovo",
    "unit": "",
    "group": "electricity.xk",
    "decomposition": {
      "2023": {
        "water": 0.137,
        "carbon": 1.416
      }
    }
  },
  "electricity.kw": {
    "description_FR": "Koweït",
    "description_EN": "Kuwait",
    "unit": "",
    "group": "electricity.kw",
    "decomposition": {
      "2023": {
        "water": 0.062,
        "carbon": 0.926
      }
    }
  },
  "electricity.kg": {
    "description_FR": "Kirghizstan",
    "description_EN": "Kyrgyzstan",
    "unit": "",
    "group": "electricity.kg",
    "decomposition": {
      "2023": {
        "water": 0.057,
        "carbon": 0.118
      }
    }
  },
  "electricity.lv": {
    "description_FR": "Lettonie",
    "description_EN": "Latvia",
    "unit": "",
    "group": "electricity.lv",
    "decomposition": {
      "2023": {
        "water": 0.093,
        "carbon": 0.264
      }
    }
  },
  "electricity.lb": {
    "description_FR": "Liban",
    "description_EN": "Lebanon",
    "unit": "",
    "group": "electricity.lb",
    "decomposition": {
      "2023": {
        "water": 0.066,
        "carbon": 0.78
      }
    }
  },
  "electricity.lt": {
    "description_FR": "Lituanie",
    "description_EN": "Lithuania",
    "unit": "",
    "group": "electricity.lt",
    "decomposition": {
      "2023": {
        "water": 0.162,
        "carbon": 0.262
      }
    }
  },
  "electricity.lu": {
    "description_FR": "Luxembourg",
    "description_EN": "Luxembourg",
    "unit": "",
    "group": "electricity.lu",
    "decomposition": {
      "2023": {
        "water": 0.099,
        "carbon": 0.124
      }
    }
  },
  "electricity.my": {
    "description_FR": "Malaisie",
    "description_EN": "Malaysia",
    "unit": "",
    "group": "electricity.my",
    "decomposition": {
      "2023": {
        "water": 0.287,
        "carbon": 0.8
      }
    }
  },
  "electricity.mt": {
    "description_FR": "Malte",
    "description_EN": "Malta",
    "unit": "",
    "group": "electricity.mt",
    "decomposition": {
      "2023": {
        "water": 0.084,
        "carbon": 0.727
      }
    }
  },
  "electricity.mu": {
    "description_FR": "Maurice",
    "description_EN": "Mauritius",
    "unit": "",
    "group": "electricity.mu",
    "decomposition": {
      "2023": {
        "water": 0.07,
        "carbon": 0.935
      }
    }
  },
  "electricity.mx": {
    "description_FR": "Mexique",
    "description_EN": "Mexico",
    "unit": "",
    "group": "electricity.mx",
    "decomposition": {
      "2023": {
        "water": 0.061,
        "carbon": 0.36
      }
    }
  },
  "electricity.mn": {
    "description_FR": "Mongolie",
    "description_EN": "Mongolia",
    "unit": "",
    "group": "electricity.mn",
    "decomposition": {
      "2023": {
        "water": 0.5,
        "carbon": 1.641
      }
    }
  },
  "electricity.me": {
    "description_FR": "Monténégro",
    "description_EN": "Montenegro",
    "unit": "",
    "group": "electricity.me",
    "decomposition": {
      "2023": {
        "water": 0.212,
        "carbon": 0.466
      }
    }
  },
  "electricity.ma": {
    "description_FR": "Maroc",
    "description_EN": "Morocco",
    "unit": "",
    "group": "electricity.ma",
    "decomposition": {
      "2023": {
        "water": 0.088,
        "carbon": 0.79
      }
    }
  },
  "electricity.mz": {
    "description_FR": "Mozambique",
    "description_EN": "Mozambique",
    "unit": "",
    "group": "electricity.mz",
    "decomposition": {
      "2023": {
        "water": 0.073,
        "carbon": 0.001
      }
    }
  },
  "electricity.mm": {
    "description_FR": "Myanmar",
    "description_EN": "Myanmar",
    "unit": "",
    "group": "electricity.mm",
    "decomposition": {
      "2023": {
        "water": 0.038,
        "carbon": 0.314
      }
    }
  },
  "electricity.na": {
    "description_FR": "Namibie",
    "description_EN": "Namibia",
    "unit": "",
    "group": "electricity.na",
    "decomposition": {
      "2023": {
        "water": 0.114,
        "carbon": 0.236
      }
    }
  },
  "electricity.np": {
    "description_FR": "Népal",
    "description_EN": "Nepal",
    "unit": "",
    "group": "electricity.np",
    "decomposition": {
      "2023": {
        "water": 0.118,
        "carbon": 0.001
      }
    }
  },
  "electricity.nz": {
    "description_FR": "Nouvelle-Zélande",
    "description_EN": "New Zealand",
    "unit": "",
    "group": "electricity.nz",
    "decomposition": {
      "2023": {
        "water": 0.018,
        "carbon": 0.124
      }
    }
  },
  "electricity.ni": {
    "description_FR": "Nicaragua",
    "description_EN": "Nicaragua",
    "unit": "",
    "group": "electricity.ni",
    "decomposition": {
      "2023": {
        "water": 0.033,
        "carbon": 0.529
      }
    }
  },
  "electricity.ng": {
    "description_FR": "Nigeria",
    "description_EN": "Nigeria",
    "unit": "",
    "group": "electricity.ng",
    "decomposition": {
      "2023": {
        "water": 0.049,
        "carbon": 0.466
      }
    }
  },
  "electricity.mk": {
    "description_FR": "Macédoine du Nord",
    "description_EN": "North Macedonia",
    "unit": "",
    "group": "electricity.mk",
    "decomposition": {
      "2023": {
        "water": 0.323,
        "carbon": 0.756
      }
    }
  },
  "electricity.no": {
    "description_FR": "Norvège",
    "description_EN": "Norway",
    "unit": "",
    "group": "electricity.no",
    "decomposition": {
      "2023": {
        "water": 1.255,
        "carbon": 0.006
      }
    }
  },
  "electricity.om": {
    "description_FR": "Oman",
    "description_EN": "Oman",
    "unit": "",
    "group": "electricity.om",
    "decomposition": {
      "2023": {
        "water": 0.06,
        "carbon": 0.873
      }
    }
  },
  "electricity.pk": {
    "description_FR": "Pakistan",
    "description_EN": "Pakistan",
    "unit": "",
    "group": "electricity.pk",
    "decomposition": {
      "2023": {
        "water": 0.087,
        "carbon": 0.489
      }
    }
  },
  "electricity.pa": {
    "description_FR": "Panama",
    "description_EN": "Panama",
    "unit": "",
    "group": "electricity.pa",
    "decomposition": {
      "2023": {
        "water": 0.024,
        "carbon": 0.358
      }
    }
  },
  "electricity.py": {
    "description_FR": "Paraguay",
    "description_EN": "Paraguay",
    "unit": "",
    "group": "electricity.py",
    "decomposition": {
      "2023": {
        "water": 0.006,
        "carbon": 0.0
      }
    }
  },
  "electricity.pe": {
    "description_FR": "Pérou",
    "description_EN": "Peru",
    "unit": "",
    "group": "electricity.pe",
    "decomposition": {
      "2023": {
        "water": 4.593,
        "carbon": 0.347
      }
    }
  },
  "electricity.ph": {
    "description_FR": "Philippines",
    "description_EN": "Philippines",
    "unit": "",
    "group": "electricity.ph",
    "decomposition": {
      "2023": {
        "water": 0.089,
        "carbon": 0.553
      }
    }
  },
  "electricity.pl": {
    "description_FR": "Pologne",
    "description_EN": "Poland",
    "unit": "",
    "group": "electricity.pl",
    "decomposition": {
      "2023": {
        "water": 0.206,
        "carbon": 0.854
      }
    }
  },
  "electricity.pt": {
    "description_FR": "Portugal",
    "description_EN": "Portugal",
    "unit": "",
    "group": "electricity.pt",
    "decomposition": {
      "2023": {
        "water": 0.162,
        "carbon": 0.197
      }
    }
  },
  "electricity.qa": {
    "description_FR": "Qatar",
    "description_EN": "Qatar",
    "unit": "",
    "group": "electricity.qa",
    "decomposition": {
      "2023": {
        "water": 0.056,
        "carbon": 0.568
      }
    }
  },
  "electricity.ro": {
    "description_FR": "Roumanie",
    "description_EN": "Romania",
    "unit": "",
    "group": "electricity.ro",
    "decomposition": {
      "2023": {
        "water": 0.45,
        "carbon": 0.333
      }
    }
  },
  "electricity.ru": {
    "description_FR": "Russie",
    "description_EN": "Russia",
    "unit": "",
    "group": "electricity.ru",
    "decomposition": {
      "2023": {
        "water": 0.259,
        "carbon": 0.386
      }
    }
  },
  "electricity.sa": {
    "description_FR": "Arabie saoudite",
    "description_EN": "Saudi Arabia",
    "unit": "",
    "group": "electricity.sa",
    "decomposition": {
      "2023": {
        "water": 0.079,
        "carbon": 0.676
      }
    }
  },
  "electricity.sn": {
    "description_FR": "Sénégal",
    "description_EN": "Senegal",
    "unit": "",
    "group": "electricity.sn",
    "decomposition": {
      "2023": {
        "water": 0.08,
        "carbon": 0.701
      }
    }
  },
  "electricity.rs": {
    "description_FR": "Serbie",
    "description_EN": "Serbia",
    "unit": "",
    "group": "electricity.rs",
    "decomposition": {
      "2023": {
        "water": 0.263,
        "carbon": 0.765
      }
    }
  },
  "electricity.sg": {
    "description_FR": "Singapour",
    "description_EN": "Singapore",
    "unit": "",
    "group": "electricity.sg",
    "decomposition": {
      "2023": {
        "water": 0.044,
        "carbon": 0.469
      }
    }
  },
  "electricity.sk": {
    "description_FR": "Slovaquie",
    "description_EN": "Slovakia",
    "unit": "",
    "group": "electricity.sk",
    "decomposition": {
      "2023": {
        "water": 0.218,
        "carbon": 0.199
      }
    }
  },
  "electricity.si": {
    "description_FR": "Slovénie",
    "description_EN": "Slovenia",
    "unit": "",
    "group": "electricity.si",
    "decomposition": {
      "2023": {
        "water": 0.168,
        "carbon": 0.26
      }
    }
  },
  "electricity.za": {
    "description_FR": "Afrique du Sud",
    "description_EN": "South Africa",
    "unit": "",
    "group": "electricity.za",
    "decomposition": {
      "2023": {
        "water": 0.167,
        "carbon": 0.953
      }
    }
  },
  "electricity.es": {
    "description_FR": "Espagne",
    "description_EN": "Spain",
    "unit": "",
    "group": "electricity.es",
    "decomposition": {
      "2023": {
        "water": 0.133,
        "carbon": 0.184
      }
    }
  },
  "electricity.lk": {
    "description_FR": "Sri Lanka",
    "description_EN": "Sri Lanka",
    "unit": "",
    "group": "electricity.lk",
    "decomposition": {
      "2023": {
        "water": 0.06,
        "carbon": 0.455
      }
    }
  },
  "electricity.sd": {
    "description_FR": "Soudan",
    "description_EN": "Sudan",
    "unit": "",
    "group": "electricity.sd",
    "decomposition": {
      "2023": {
        "water": 0.042,
        "carbon": 0.413
      }
    }
  },
  "electricity.se": {
    "description_FR": "Suède",
    "description_EN": "Sweden",
    "unit": "",
    "group": "electricity.se",
    "decomposition": {
      "2023": {
        "water": 0.244,
        "carbon": 0.01
      }
    }
  },
  "electricity.ch": {
    "description_FR": "Suisse",
    "description_EN": "Switzerland",
    "unit": "",
    "group": "electricity.ch",
    "decomposition": {
      "2023": {
        "water": 0.477,
        "carbon": 0.015
      }
    }
  },
  "electricity.tw": {
    "description_FR": "Taïwan",
    "description_EN": "Taiwan",
    "unit": "",
    "group": "electricity.tw",
    "decomposition": {
      "2023": {
        "water": 0.081,
        "carbon": 0.845
      }
    }
  },
  "electricity.tj": {
    "description_FR": "Tadjikistan",
    "description_EN": "Tajikistan",
    "unit": "",
    "group": "electricity.tj",
    "decomposition": {
      "2023": {
        "water": 0.013,
        "carbon": 0.031
      }
    }
  },
  "electricity.th": {
    "description_FR": "Thaïlande",
    "description_EN": "Thailand",
    "unit": "",
    "group": "electricity.th",
    "decomposition": {
      "2023": {
        "water": 0.128,
        "carbon": 0.468
      }
    }
  },
  "electricity.tg": {
    "description_FR": "Togo",
    "description_EN": "Togo",
    "unit": "",
    "group": "electricity.tg",
    "decomposition": {
      "2023": {
        "water": 0.045,
        "carbon": 0.234
      }
    }
  },
  "electricity.tt": {
    "description_FR": "Trinité-et-Tobago",
    "description_EN": "Trinidad and Tobago",
    "unit": "",
    "group": "electricity.tt",
    "decomposition": {
      "2023": {
        "water": 0.057,
        "carbon": 0.77
      }
    }
  },
  "electricity.tn": {
    "description_FR": "Tunisie",
    "description_EN": "Tunisia",
    "unit": "",
    "group": "electricity.tn",
    "decomposition": {
      "2023": {
        "water": 0.065,
        "carbon": 0.532
      }
    }
  },
  "electricity.tm": {
    "description_FR": "Turkménistan",
    "description_EN": "Turkmenistan",
    "unit": "",
    "group": "electricity.tm",
    "decomposition": {
      "2023": {
        "water": 0.067,
        "carbon": 2.088
      }
    }
  },
  "electricity.ua": {
    "description_FR": "Ukraine",
    "description_EN": "Ukraine",
    "unit": "",
    "group": "electricity.ua",
    "decomposition": {
      "2023": {
        "water": 0.13,
        "carbon": 0.482
      }
    }
  },
  "electricity.ae": {
    "description_FR": "Émirats Arabes Unis",
    "description_EN": "United Arab Emirates",
    "unit": "",
    "group": "electricity.ae",
    "decomposition": {
      "2023": {
        "water": 0.055,
        "carbon": 0.461
      }
    }
  },
  "electricity.gb": {
    "description_FR": "Royaume Uni",
    "description_EN": "United Kingdom",
    "unit": "",
    "group": "electricity.gb",
    "decomposition": {
      "2023": {
        "water": 0.069,
        "carbon": 0.232
      }
    }
  },
  "electricity.us": {
    "description_FR": "États-Unis",
    "description_EN": "United States",
    "unit": "",
    "group": "electricity.us",
    "decomposition": {
      "2023": {
        "water": 0.11,
        "carbon": 0.448
      }
    }
  },
  "electricity.uy": {
    "description_FR": "Uruguay",
    "description_EN": "Uruguay",
    "unit": "",
    "group": "electricity.uy",
    "decomposition": {
      "2023": {
        "water": 0.066,
        "carbon": 0.105
      }
    }
  },
  "electricity.uz": {
    "description_FR": "Ouzbékistan",
    "description_EN": "Uzbekistan",
    "unit": "",
    "group": "electricity.uz",
    "decomposition": {
      "2023": {
        "water": 0.128,
        "carbon": 0.807
      }
    }
  },
  "electricity.ve": {
    "description_FR": "Vénézuéla",
    "description_EN": "Venezuela",
    "unit": "",
    "group": "electricity.ve",
    "decomposition": {
      "2023": {
        "water": 0.029,
        "carbon": 0.317
      }
    }
  },
  "electricity.ye": {
    "description_FR": "Yémen",
    "description_EN": "Yemen",
    "unit": "",
    "group": "electricity.ye",
    "decomposition": {
      "2023": {
        "water": 0.101,
        "carbon": 0.721
      }
    }
  },
  "electricity.zm": {
    "description_FR": "Zambie",
    "description_EN": "Zambia",
    "unit": "",
    "group": "electricity.zm",
    "decomposition": {
      "2023": {
        "water": 0.021,
        "carbon": 0.004
      }
    }
  },
  "electricity.zw": {
    "description_FR": "Zimbabwe",
    "description_EN": "Zimbabwe",
    "unit": "",
    "group": "electricity.zw",
    "decomposition": {
      "2023": {
        "water": 0.084,
        "carbon": 0.726
      }
    }
  },
  "electricity.europe": {
    "description_FR": "",
    "description_EN": "",
    "unit": "",
    "group": "electricity.europe",
    "decomposition": {
      "2023": {
        "water": 0.207347495620732,
        "carbon": 0.33
      }
    }
  },
  "electricity.asia": {
    "description_FR": "",
    "description_EN": "",
    "unit": "",
    "group": "electricity.asia",
    "decomposition": {
      "2023": {
        "water": 0.12759141712327,
        "carbon": 0.92
      }
    }
  },
  "electricity.america": {
    "description_FR": "",
    "description_EN": "",
    "unit": "",
    "group": "electricity.america",
    "decomposition": {
      "2023": {
        "water": 0.200732195441174,
        "carbon": 0.44
      }
    }
  }
}
