{
  "settings": [
    {
      "id": 1,
      "name": "LOGO_URL",
      "section": "global",
      "value": "/static/img/labos1p5_logo_white.png",
      "type": 1,
      "component": null
    },
    {
      "id": 2,
      "name": "ACTIVE_MODULES",
      "section": "global",
      "value": [
        "buildings/form",
        "purchases/form",
        "devices/form",
        "vehicles/form",
        "travels/form",
        "commutes/survey",
        "foods/survey",
        "ractivities/form"
      ],
      "type": 1,
      "component": "ActiveModules"
    },
    {
      "id": 3,
      "name": "ACTIVE_SCENARIOS",
      "section": "global",
      "value": [
        "FleetElectrification",
        "AnnualCollectiveQuota",
        "CarElectrification",
        "Carpooling",
        "ChangeHeating",
        "IncreaseDevicesLifetime",
        "IncreaseInstrumentsLifetime",
        "InsulateBuilding",
        "LimitPlane",
        "ReduceHeating",
        "ReducePurchase",
        "ReplaceCar",
        "ReplacePlane",
        "ReplacePlaneNational",
        "SecondHandPurchase",
        "SelfConsumption",
        "Teleworking",
        "ChangeDiet"
      ],
      "type": 1,
      "component": null
    },
    {
      "id": 4,
      "name": "MODULES_COLORS",
      "section": "global",
      "value": {
        "water": "#931c63",
        "construction": "#af4284",
        "heatings": "#c84896",
        "refrigerants": "#fdc2e5",
        "vehicles": "#fd8e62",
        "travels": "#67c3a5",
        "commutes": "#8ea0cc",
        "devices": "#a6d953",
        "purchases": "#ffda2c",
        "ractivities": "#bf4040"
      },
      "type": 1,
      "component": "ModulesColors"
    },
    {
      "id": 5,
      "name": "GEONAMES_USERNAME",
      "section": "global",
      "value": "labos1point5",
      "type": 1,
      "component": "DefaultInput"
    },
    {
      "id": 6,
      "name": "ALLOWED_COUNTRIES",
      "section": "global",
      "value": [
        "MF",
        "BL",
        "PF",
        "YT",
        "GF",
        "PM",
        "RE",
        "GP",
        "MQ",
        "WF",
        "TF",
        "NC",
        "FR"
      ],
      "type": 1,
      "component": "AllowedCountries"
    },
    {
      "id": 7,
      "name": "ENTITY_CLASS",
      "section": "global",
      "value": "Laboratory",
      "type": 1,
      "component": null
    },
    {
      "id": 8,
      "name": "NUMBER_OF_WORKED_WEEKS",
      "section": "commute",
      "value": {
        "default": 41,
        "2020": 27,
        "2021": 37
      },
      "type": 2,
      "component": null
    },
    {
      "id": 9,
      "name": "FILE_FORMATS",
      "section": "travel",
      "value": [
        "ges1p5",
        "geslab",
        "havas",
        "sifac"
      ],
      "type": 2,
      "component": null
    },
    {
      "id": 10,
      "name": "ACCEPTED_MIME_TYPES",
      "section": "transition",
      "value": "application/pdf,image/*,.lss",
      "type": 2,
      "component": null
    },
    {
      "id": 11,
      "name": "POSITION_TITLES",
      "section": "global",
      "value": [
        {
          "name": "pt.researcher",
          "quotity": 1
        },
        {
          "name": "pt.teacher",
          "quotity": 0.5
        },
        {
          "name": "pt.support",
          "quotity": 1
        },
        {
          "name": "pt.student-postdoc",
          "quotity": 1
        }
      ],
      "type": 2,
      "component": null
    },
    {
      "id": 12,
      "name": "CF_LABEL_MAPPING",
      "section": "commute",
      "value": {
        "pt.researcher": "cf.researcher-teacher",
        "pt.teacher": "cf.researcher-teacher",
        "pt.support": "cf.support",
        "pt.student-postdoc": "cf.student-postdoc"
      },
      "type": 2,
      "component": null
    },
    {
      "id": 13,
      "name": "TRAVEL_POSITION_LABELS",
      "section": "travel",
      "value": [
        "travel.guest",
        "travel.researcher",
        "travel.support",
        "travel.student-postdoc",
        "travel.unknown"
      ],
      "type": 2,
      "component": null
    },
    {
      "id": 14,
      "name": "TRAVEL_POSITION_DICTIONARY",
      "section": "travel",
      "value": {
        "personne invitee": "travel.guest",
        "invited person": "travel.guest",
        "chercheur.e-ec": "travel.researcher",
        "ita": "travel.support",
        "engineer": "travel.support",
        "technician": "travel.support",
        "administrative": "travel.support",
        "doc-post doc": "travel.student-postdoc",
        "phd-post doctoral fellow": "travel.student-postdoc",
        "phd": "travel.student-postdoc",
        "post-doc": "travel.student-postdoc",
        "post doc": "travel.student-postdoc",
        "": "travel.unknown",
        "travel.guest": "travel.guest",
        "travel.researcher": "travel.researcher",
        "travel.support": "travel.support",
        "travel.student-postdoc": "travel.student-postdoc",
        "travel.unknown": "travel.unknown"
      },
      "type": 2,
      "component": null
    },
    {
      "id": 15,
      "name": "TRAVEL_PURPOSE_LABELS",
      "section": "travel",
      "value": [
        "field.study",
        "conference",
        "seminar",
        "teaching",
        "collaboration",
        "visit",
        "research.management",
        "other",
        "unknown"
      ],
      "type": 2,
      "component": null
    },
    {
      "id": 16,
      "name": "TRAVEL_PURPOSE_DICTIONARY",
      "section": "travel",
      "value": {
        "field study": "field.study",
        "etude de terrain": "field.study",
        "etude terrain": "field.study",
        "colloque-congres": "conference",
        "colloque": "conference",
        "congres": "conference",
        "seminaire": "seminar",
        "enseignement": "teaching",
        "visite": "visit",
        "research management": "research.management",
        "administration de la recherche": "research.management",
        "administration": "research.management",
        "autre": "other",
        "": "unknown",
        "Acq nouv connaissances&techniq": "seminar",
        "Administration de la recherche": "research.management",
        "Autres": "other",
        "Colloques et congrés": "conference",
        "Enseignement dispensé": "teaching",
        "Rech. doc. ou sur terrain": "field.study",
        "Rech. en équipe, collaboration": "collaboration",
        "Visite, contact pour projet": "visit",
        "field.study": "field.study",
        "conference": "conference",
        "seminar": "seminar",
        "teaching": "teaching",
        "collaboration": "collaboration",
        "visit": "visit",
        "research.management": "research.management",
        "other": "other",
        "unknown": "unknown"
      },
      "type": 2,
      "component": null
    },
    {
      "id": 17,
      "name": "I18N",
      "section": "global",
      "value": {
        "en": {
          "pt.researcher": "Researchers",
          "pt.teacher": "Professors",
          "pt.support": "Engineers",
          "pt.student-postdoc": "Phds or Post-Docs",
          "cf.researcher-teacher": "a researcher or a professor",
          "cf.researcher-teacher.short": "Professors / Researchers",
          "cf.support": "an engineer, a technician, an assistant engineer, research support staff",
          "cf.support.short": "ITA",
          "cf.student-postdoc": "a PhD student or a Post-Doc",
          "cf.student-postdoc.short": "PhD / Post-Doc",
          "travel.guest": "Guest",
          "travel.researcher": "Researcher or professor",
          "travel.support": "ITA",
          "travel.student-postdoc": "PhD student or Post-Doc",
          "travel.unknown": "unknown",
          "field.study": "Field study",
          "conference": "Conference",
          "seminar": "Seminar",
          "teaching": "Teaching",
          "collaboration": "Collaboration",
          "visit": "Visit",
          "research.management": "Research management",
          "other": "Other",
          "unknown": "Unknown"
        },
        "fr": {
          "pt.researcher": "Chercheurs",
          "pt.teacher": "Enseignants-Ch.",
          "pt.support": "ITA",
          "pt.student-postdoc": "Doctorants/Post-Docs",
          "cf.researcher-teacher": "chercheur.e ou enseignant.e chercheur.e",
          "cf.researcher-teacher.short": "Enseignant.e / Chercheur.e",
          "cf.support": "ingénieur.e, technicien.ne, assistant.e ingénieur.e, personnel d'appui à la recherche",
          "cf.support.short": "ITA",
          "cf.student-postdoc": "doctorant.e ou postdoctorant.e",
          "cf.student-postdoc.short": "Doc / Post-Doc",
          "travel.guest": "Personne invitée",
          "travel.researcher": "Chercheur.e-EC",
          "travel.support": "ITA",
          "travel.student-postdoc": "Doctorant ou Post-Doc",
          "travel.unknown": "Inconnu",
          "field.study": "Etude terrain",
          "conference": "Colloque-Congrès",
          "seminar": "Séminaire",
          "teaching": "Enseignement",
          "collaboration": "Collaboration",
          "visit": "Visite",
          "research.management": "Administration de la recherche",
          "other": "Autre",
          "unknown": "Inconnu"
        }
      },
      "type": 2,
      "component": null
    },
    {
      "id": 18,
      "name": "ACTIVE_APPS",
      "section": "global",
      "value": [
        "application/carbon",
        "application/scenario",
        "application/transition",
        "simulator/commutes-simulator",
        "simulator/foods-simulator",
        "simulator/travels-simulator",
        "simulator/ecolabware"
      ],
      "type": 1,
      "component": "ActiveApps"
    }
  ]
}
